9784063712506,水の森(1) (KCデラックス),水の森
9784063760101,水の森(2) (KCデラックス),水の森
9784063760538,水の森(3) <完> (KCデラックス),水の森
9784344817739,来世であいましょう 1 (バーズコミックス),来世であいましょう
9784344819528,来世であいましょう 2 (バーズコミックス),来世であいましょう
9784344821453,来世であいましょう 3 (バーズコミックス),来世であいましょう
9784344826762,来世であいましょう (4) (バーズコミックス),来世であいましょう
9784088598772,ごっこ 1 (ジャンプコミックスデラックス),ごっこ
9784088587837,ごっこ 2 (ジャンプコミックスデラックス),ごっこ
9784088587950,ごっこ 3 (ジャンプコミックスデラックス),ごっこ
9784088793115,犯罪王ポポネポ 1 (ヤングジャンプコミックス),犯罪王ポポネポ
9784088794679,犯罪王ポポネポ 2 (ヤングジャンプコミックス),犯罪王ポポネポ
9784797333664,廃墟ホテルへようこそ。 (GA文庫),廃墟ホテルへようこそ。
9784797347470,廃墟ホテルへようこそ。2 (GA文庫),廃墟ホテルへようこそ。
9784758070270,EPITAPH (1) (IDコミックス 百合姫コミックス),EPITAPH
9784062156325,獣の奏者 (3)探求編,獣の奏者
9784062156332,獣の奏者 (4)完結編,獣の奏者
9784062850568,獣の奏者(1) (講談社青い鳥文庫),獣の奏者 (青い鳥文庫)
9784062850698,獣の奏者(2) (講談社青い鳥文庫),獣の奏者 (青い鳥文庫)
9784062850766,獣の奏者(3) (講談社青い鳥文庫),獣の奏者 (青い鳥文庫)
9784062850926,獣の奏者(4) (講談社青い鳥文庫),獣の奏者 (青い鳥文庫)
9784062852104,獣の奏者(5) (講談社青い鳥文庫),獣の奏者 (青い鳥文庫)
9784062852197,獣の奏者(6) (講談社青い鳥文庫),獣の奏者 (青い鳥文庫)
9784062852234,獣の奏者(7) (講談社青い鳥文庫),獣の奏者 (青い鳥文庫)
9784062852494,獣の奏者(8) (講談社青い鳥文庫),獣の奏者 (青い鳥文庫)
9784062764469,獣の奏者 1闘蛇編 (講談社文庫),獣の奏者
9784062764476,獣の奏者 2王獣編 (講談社文庫),獣の奏者
9784062773447,獣の奏者 3探求編 (講談社文庫),獣の奏者
9784062773454,獣の奏者 4完結編 (講談社文庫),獣の奏者
9784062164399,獣の奏者 外伝 刹那,刹那
9784829163429,SHINO ―シノ― 黒き魂の少女 (富士見ミステリー文庫),SHI-NO —シノ—
9784829163535,SHINO ―シノ― アリスの子守唄 (富士見ミステリー文庫),SHI-NO —シノ—
9784829163665,SHI‐NO―天使と悪魔 (富士見ミステリー文庫),SHI-NO —シノ—
9784829163795,SHI‐NO―愛の証明 (富士見ミステリー文庫),SHI-NO —シノ—
9784829163917,SHI‐NO―シノ-呪いは五つの穴にある (富士見ミステリー文庫),SHI-NO —シノ—
9784829164037,SHI‐NO―シノ‐支倉志乃の敗北 (富士見ミステリー文庫),SHI-NO —シノ—
9784829164099,SHI‐NO―シノ 夢の最果て (富士見ミステリー文庫),SHI-NO —シノ—
9784829164105,SHI-NO-シノ-空色の未来図 (富士見ミステリー文庫),SHI-NO —シノ—
9784829164136,SHI-NO-シノ-  過去からの招待状 (富士見ミステリー文庫),SHI-NO —シノ—
9784829164150,SHI-NO-シノ-  君の笑顔 (富士見ミステリー文庫),SHI-NO —シノ—
9784829136041,カナクのキセキ１ (富士見ファンタジア文庫),カナクのキセキ
9784344825154,お母さんを僕にください (1) (バーズコミックス スピカコレクション),お母さんを僕にください
9784344826564,お母さんを僕にください (2) (バーズコミックス スピカコレクション),お母さんを僕にください
9784063713015,四月は君の嘘(1) (月刊マガジンコミックス),四月は君の嘘
9784063713176,四月は君の嘘(2) (月刊マガジンコミックス),四月は君の嘘
9784063713275,四月は君の嘘(3) (月刊マガジンコミックス),四月は君の嘘
9784063713459,四月は君の嘘(4) (月刊マガジンコミックス),四月は君の嘘
9784063713596,四月は君の嘘(5) (月刊マガジンコミックス),四月は君の嘘
9784063713756,四月は君の嘘(6) (月刊マガジンコミックス),四月は君の嘘
9784832265950,タマさん 第1巻やで (まんがタイムコミックス),タマさん
9784832266612,タマさん 2 (まんがタイムコミックス),タマさん
9784832268012,タマさん 3 (まんがタイムコミックス),タマさん
9784832268838,タマさん 4 (まんがタイムコミックス),タマさん
9784832269811,タマさん （５） (まんがタイムコミックス),タマさん
9784832251557,タマさん (6) (まんがタイムコミックス),タマさん
9784861766749,ウェンディ・ペイン1 (CR COMICS),ウェンディ・ペイン
9784861767401,ウェンディ・ペイン 2 (CR COMICS),ウェンディ・ペイン
9784861767753,ウェンディ・ペイン③ (CR COMICS),ウェンディ・ペイン
9784049261431,クロノクルセイド (Vol.1) (ドラゴンコミックス),クロノクルセイド
9784049261523,クロノクルセイド (Vol.2) (ドラゴンコミックス),クロノクルセイド
9784049261615,クロノクルセイド (Vol.3) (ドラゴンコミックス),クロノクルセイド
9784049261820,クロノクルセイド (Vol.4) (ドラゴンコミックス),クロノクルセイド
9784049262032,クロノクルセイド (Vol.5) (ドラゴンコミックス),クロノクルセイド
9784049262254,クロノクルセイド (Vol.6) (ドラゴンコミックス),クロノクルセイド
9784049262377,クロノクルセイド (Vol.7) (ドラゴンコミックス),クロノクルセイド
9784049262476,クロノクルセイド (Vol.8) (ドラゴンコミックス),クロノクルセイド
9784785926298,ワールドエンブリオ 1 (ヤングキングコミックス),ワールドエンブリオ
9784785927172,ワールドエンブリオ 2 (ヤングキングコミックス),ワールドエンブリオ
9784785928308,ワールドエンブリオ 3 (ヤングキングコミックス),ワールドエンブリオ
9784785929510,ワールドエンブリオ 4 (ヤングキングコミックス),ワールドエンブリオ
9784785930998,ワールドエンブリオ 5 (ヤングキングコミックス),ワールドエンブリオ
9784785932879,ワールドエンブリオ 6 (ヤングキングコミックス),ワールドエンブリオ
9784785934606,ワールドエンブリオ 7 (ヤングキングコミックス),ワールドエンブリオ
9784785936341,ワールドエンブリオ 8 (ヤングキングコミックス),ワールドエンブリオ
9784785937997,ワールドエンブリオ 9 (ヤングキングコミックス),ワールドエンブリオ
9784785950583,ワールドエンブリオ 10 (ヤングキングコミックス),ワールドエンブリオ
9784785950590,ワールドエンブリオ 11 (ヤングキングコミックス),ワールドエンブリオ
9784840134248,不堕落なルイシュ (MF文庫J),不堕落なルイシュ
9784840135535,不堕落なルイシュ２ (MF文庫J),不堕落なルイシュ
9784797365627,お前のご奉仕はその程度か？ (GA文庫),お前のご奉仕はその程度か？
9784797367348,お前のご奉仕はその程度か？2 (GA文庫),お前のご奉仕はその程度か？
9784797368949,お前のご奉仕はその程度か？3 (GA文庫),お前のご奉仕はその程度か？
9784797369243,お前のご奉仕はその程度か?4 (GA文庫),お前のご奉仕はその程度か？
9784797372007,お前のご奉仕はその程度か?5 (GA文庫),お前のご奉仕はその程度か？
9784797372892,お前のご奉仕はその程度か?6 (GA文庫),お前のご奉仕はその程度か？
9784047285064,魔女の絶対道徳 (ファミ通文庫),魔女の絶対道徳
9784047287983,魔女の絶対道徳2 (ファミ通文庫),魔女の絶対道徳
9784094513837,つきたま ※ぷにぷにしています (ガガガ文庫),つきたま
9784094514018,つきたま 2 ※公務員のお仕事楽しいです (ガガガ文庫),つきたま
9784840137911,となりの関くん① (MFコミックス フラッパーシリーズ),となりの関くん
9784840140652,となりの関くん 2 (MFコミックス フラッパーシリーズ),となりの関くん
9784840147019,となりの関くん 3 (フラッパー),となりの関くん
9784840150460,となりの関くん 4 (フラッパーコミックス),となりの関くん
9784088795775,いいなりゴハン 1 (ヤングジャンプコミックス),いいなりゴハン
9784592140184,学園恋獄ゾンビメイト 上 (ジェッツコミックス),学園恋獄ゾンビメイト
9784592140191,学園恋獄ゾンビメイト 下 (ジェッツコミックス),学園恋獄ゾンビメイト
9784088654737,Papa told me 〜街を歩けば〜 (クイーンズコミックス),Papa told me
9784088655307,Papa told me 〜私の好きな惑星〜 (クイーンズコミックス),Papa told me
9784088655949,Papa told me 〜カフェで道草〜 (クイーンズコミックス),Papa told me
9784088656274,Papa told me 〜窓に灯りのともる頃〜 (クイーンズコミックス),Papa told me
9784088468211,Papa told me Cocohana ver.1 〜丘は花でいっぱい〜 (マーガレットコミックス),Papa told me Cocohana ver.
9784088450773,Papa told me Cocohana ver.2 〜雲のテラスで〜 (マーガレットコミックス),Papa told me Cocohana ver.
9784063106268,ロケットスターター 1 (アフタヌーンKC),ロケットスターター
9784063106770,ロケットスターター(2) (アフタヌーンKC),ロケットスターター
9784861760266,IQ探偵ムー そして、彼女はやってきた。 (カラフル文庫),IQ探偵ムー
9784047125315,鋼殻のレギオス 1 (角川コミックス ドラゴンJr. 122-1),鋼殻のレギオス
9784047126008,鋼殻のレギオス2 (角川コミックス ドラゴンJr. 122-2),鋼殻のレギオス
9784047157712,Ｆａｔｅ／Ｚｅｒｏ　（１） (角川コミックス・エース 345-1),Fate/Zero
9784047157873,Ｆａｔｅ／Ｚｅｒｏ　（２） (角川コミックス・エース 345-4),Fate/Zero
9784047158191,Ｆａｔｅ／Ｚｅｒｏ　（３） (カドカワコミックスＡエース),Fate/Zero
9784041204016,Fate/Zero (4) (カドカワコミックス・エース),Fate/Zero
9784041205631,Fate/Zero (5) (カドカワコミックス・エース),Fate/Zero
9784041208007,Fate/Zero (6) (カドカワコミックス・エース),Fate/Zero
9784199800047,笑えぬ童子〜108の業〜1(ゼノンコミックス),笑えぬ童子〜108の業〜
9784199800344,笑えぬ童子~108の業~ 2 (ゼノンコミックス),笑えぬ童子〜108の業〜
9784790123743,妹と恋なんかしたくない 1 (シガレットコミックス),妹と恋なんかしたくない
9784790123958,妹と恋なんかしたくない 2 (シガレットコミックス),妹と恋なんかしたくない
9784103030515,僕僕先生,僕僕先生
9784103030522,薄妃の恋―僕僕先生,僕僕先生
9784103030539,胡蝶の失くし物―僕僕先生,僕僕先生
9784103030546,さびしい女神―僕僕先生,僕僕先生
9784103030553,先生の隠しごと―僕僕先生,僕僕先生
9784103030560,鋼の魂 僕僕先生,僕僕先生
9784103030577,童子の輪舞曲 僕僕先生,僕僕先生
9784101374314,僕僕先生 (新潮文庫),僕僕先生
9784022645197,朱温 上 (朝日文庫),朱温
9784022645203,朱温 下 (朝日文庫),朱温
9784062158626,千里伝 五嶽真形図,千里伝
9784062165709,千里伝 時輪の轍,千里伝
9784022645722,李嗣源（上） (朝日文庫),李嗣源
9784022645739,李嗣源（下） (朝日文庫),李嗣源
9784061388499,大坂将星伝(上) (星海社FICTIONS),大坂将星伝
9784044295134,リミテッド・ヴァンパイア  (1)髪喰鬼と吸血鬼 (角川スニーカー文庫),リミテッド・ヴァンパイア
9784044295141,リミテッド・ヴァンパイア    (2)髪喰鬼とおおうさぎ (角川スニーカー文庫),リミテッド・ヴァンパイア
9784757708082,振袖いちま (1) (Beam comix),振袖いちま
9784757709072,振袖いちま (2) (Beam comix),振袖いちま
9784757710160,振袖いちま (3) (Beam comix),振袖いちま
9784757725966,庭先案内 1巻,庭先案内
9784757733411,庭先案内2巻 (ビームコミックス),庭先案内
9784757737891,庭先案内 3 (BEAM COMIX),庭先案内
9784757743182,庭先案内 4巻 (BEAM COMIX),庭先案内
9784757748996,庭先案内 5巻 (BEAM COMIX),庭先案内
9784047263253,庭先案内 6巻 (BEAM COMIX),庭先案内
9784047265264,振袖いちま 上 (ビームコミックス) (BEAM COMIX),振袖いちま 新装版
9784047265271,振袖いちま 下 (ビームコミックス) (BEAM COMIX),振袖いちま 新装版
9784840140638,デンキ街の本屋さん　1 (MFコミックス フラッパーシリーズ),デンキ街の本屋さん
9784840144582,デンキ街の本屋さん 2 (MFコミックス フラッパーシリーズ),デンキ街の本屋さん
9784840147132,デンキ街の本屋さん 3 (フラッパー),デンキ街の本屋さん
9784840147873,デンキ街の本屋さん 4 (フラッパーコミックス),デンキ街の本屋さん
9784840150897,デンキ街の本屋さん 5 (フラッパーコミックス),デンキ街の本屋さん
9784048867344,人形たちの夢〈前篇〉 (電撃文庫),人形たちの夢
9784048869423,人形たちの夢 後篇 (電撃文庫),人形たちの夢
9784758061568,がんばれ!消えるな!!色素薄子さん 1 (IDコミックス REXコミックス),がんばれ！消えるな!!色素薄子さん
9784758061766,がんばれ!消えるな!!色素薄子さん 2 (IDコミックス REXコミックス),がんばれ！消えるな!!色素薄子さん
9784758061988,がんばれ!消えるな!!色素薄子さん 3 (IDコミックス REXコミックス),がんばれ！消えるな!!色素薄子さん
9784758062190,がんばれ!消えるな!!色素薄子さん 4 (IDコミックス REXコミックス),がんばれ！消えるな!!色素薄子さん
9784758062480,がんばれ！消えるな！！色素薄子さん (5) (IDコミックス REXコミックス),がんばれ！消えるな!!色素薄子さん
9784758062770,がんばれ!消えるな!!色素薄子さん 6 (IDコミックス REXコミックス),がんばれ！消えるな!!色素薄子さん
9784758062787,がんばれ！消えるな！！色素薄子さん (6) 限定版 (IDコミックス REXコミックス),がんばれ！消えるな!!色素薄子さん
9784758063128,がんばれ！消えるな！！色素薄子さん (7) (REXコミックス),がんばれ！消えるな!!色素薄子さん
9784758063463,がんばれ!  消えるな! !  色素薄子さん8 限定版 (IDコミックス REXコミックス),がんばれ！消えるな!!色素薄子さん
9784758063753,がんばれ!  消えるな! !  色素薄子さん(9) 限定版 (IDコミックス REXコミックス),がんばれ！消えるな!!色素薄子さん
9784758064002,がんばれ!  消えるな! !  色素薄子さん(10) 限定版 (IDコミックス REXコミックス),がんばれ！消えるな!!色素薄子さん
9784044722012,リバーシブル 1.黒の兵士 (角川スニーカー文庫),リバーシブル
9784044708016,憐 Ren 刻のナイフと空色のミライ (角川スニーカー文庫),憐 Ren
9784044708023,憐 Ren 錆びゆくココロと月色のナミダ (角川スニーカー文庫),憐 Ren
9784044708030,憐 Ren ~routine~ (角川スニーカー文庫),憐 Ren
9784044708047,憐 Ren―遠いキモチと風色のソラ (角川スニーカー文庫),憐 Ren
9784044708054,ウィッチマズルカ (1).魔法、使えますか? (角川スニーカー文庫),ウィッチマズルカ
9784044708061,ウィッチマズルカ (2). つながる思い (角川スニーカー文庫),ウィッチマズルカ
9784861275227,戦国妖狐(1) (BLADE COMICS),戦国妖狐
9784861275906,戦国妖狐 2 (BLADE COMICS),戦国妖狐
9784861276729,戦国妖狐(3) (BLADE COMICS),戦国妖狐
9784861277276,戦国妖狐(4) (BLADE COMICS),戦国妖狐
9784861277856,戦国妖狐(5) (ブレイドコミックス),戦国妖狐
9784861278334,戦国妖狐(6) (ブレイドコミックス),戦国妖狐
9784861278754,戦国妖狐(7) (ブレイドコミックス),戦国妖狐
9784861279324,戦国妖狐 8 (BLADE COMICS),戦国妖狐
9784800000187,戦国妖狐 9 (BLADE COMICS),戦国妖狐
9784800000705,戦国妖狐 10 (BLADE COMICS),戦国妖狐
9784800001702,戦国妖狐 11 (ブレイドコミックス),戦国妖狐
9784785939830,スピリットサークル 01―魂環 (ヤングキングコミックス),スピリットサークル —魂環
9784785950972,スピリットサークル 02―魂環 (ヤングキングコミックス),スピリットサークル —魂環
9784592185475,はじまりのにいな (花とゆめCOMICS),はじまりのにいな
9784592194217,はじまりのにいな 2 (花とゆめCOMICS),はじまりのにいな
9784592194224,はじまりのにいな 3 (花とゆめCOMICS),はじまりのにいな
9784592194231,はじまりのにいな 4 (花とゆめCOMICS),はじまりのにいな
9784592710332,14歳の恋 1,14歳の恋
9784592710431,14歳の恋 2,14歳の恋
9784592710547,14歳の恋 3,14歳の恋
9784063767490,満ちても欠けても(1) (KCデラックス),満ちても欠けても
9784832269484,ひなたフェードイン！（１） (まんがタイムコミックス),ひなたフェードイン！
9784785932305,アスクライブ・トゥ・ヘヴン 1 (ヤングキングコミックス),アスクライブ・トゥ・ヘヴン
9784785937102,アスクライブ・トゥ・ヘヴン 2 (ヤングキングコミックス),アスクライブ・トゥ・ヘヴン
9784840137393,ひまわりさん (MFコミックス アライブシリーズ),ひまわりさん
9784840140591,ひまわりさん 2 (MFコミックス アライブシリーズ),ひまわりさん
9784840147323,ひまわりさん3 (アライブコミックス),ひまわりさん
9784047154889,東京ＥＳＰ　（１） (角川コミックス・エース 160-14),東京ESP
9784861279188,VIVO! 1 (マッグガーデンコミックス アヴァルスシリーズ),VIVO!
9784861279690,VIVO! 2 (マッグガーデンコミックス アヴァルスシリーズ),VIVO!
9784800000491,VIVO! 3 (マッグガーデンコミックス アヴァルスシリーズ),VIVO!
9784800000637,お嫁さんは神様です1 (マッグガーデンコミックスビーツシリーズ),お嫁さんは神様です
9784840241632,under―異界ノスタルジア (電撃文庫),under
9784048672191,under〈2〉異界イニシエイション (電撃文庫),under
9784048678506,レンタル・フルムーン〈1〉第1訓 恋愛は読みものです (電撃文庫),レンタル・フルムーン
9784048682015,レンタル・フルムーン〈2〉第二訓 良い関係は良い距離感から (電撃文庫),レンタル・フルムーン
9784091827586,光速シスター 1 (ビッグコミックス),光速シスター
9784091834577,光速シスター 2 宇宙にたったひとり… (ビッグコミックス),光速シスター
9784199502422,ちゃんと描いてますからっ! 1（リュウコミックス）,ちゃんと描いてますからっ！
9784199502798,ちゃんと描いてますからっ! 2 (リュウコミックス),ちゃんと描いてますからっ！
9784199503221,ちゃんと描いてますからっ! 3 (リュウコミックス),ちゃんと描いてますからっ！
9784832250147,ハルコの晴れの日(1) (まんがタイムコミックス),ハルコの晴れの日
9784832251427,ハルコの晴れの日 (2) (まんがタイムコミックス),ハルコの晴れの日
9784253233071,増殖少女プラナちゃん! (チャンピオンREDコミックス),増殖少女プラナちゃん！
9784253233088,増殖少女プラナちゃん! 2 (チャンピオンREDコミックス),増殖少女プラナちゃん！
9784063878233,まじめな時間(1) (アフタヌーンKC),まじめな時間
9784063878400,まじめな時間(2) <完> (アフタヌーンKC),まじめな時間
9784047125445,鋼殻のレギオス MISSING MAIL1 (角川コミックス ドラゴンJr. 123-1),鋼殻のレギオス MISSING MAIL
9784047125667,鋼殻のレギオスMISSING MAIL2 (角川コミックス ドラゴンJr. 123-2),鋼殻のレギオス MISSING MAIL
9784047125889,鋼殻のレギオスMISSING MAIL3 (角川コミックス ドラゴンJr. 123-3),鋼殻のレギオス MISSING MAIL
9784047126145,鋼殻のレギオス MISSING MAIL (4) (角川コミックス ドラゴンJr. 123-4),鋼殻のレギオス MISSING MAIL
9784047126497,鋼殻のレギオス MISSING MAIL 5 (ドラゴンコミックスエイジ き 1-1-5),鋼殻のレギオス MISSING MAIL
9784044732011,時載りリンネ!〈1〉はじまりの本 (角川スニーカー文庫),時載りリンネ！
9784044732028,時載りリンネ!〈2〉時のゆりかご (角川スニーカー文庫),時載りリンネ！
9784044732035,時載りリンネ! 3  ささやきのクローゼット (角川スニーカー文庫),時載りリンネ！
9784044732042,時載りリンネ! 4    とっておきの日々 (角川スニーカー文庫),時載りリンネ！
9784044732059,時載りリンネ! 5  明日のスケッチ (角川スニーカー文庫),時載りリンネ！
9784047138254,Fate/stay night (1) (カドカワコミックスAエース),Fate/stay night
9784047138650,Fate/stay night (2) (カドカワコミックスAエース),Fate/stay night
9784047139145,Fate/stay night 3 (角川コミックス・エース 150-4),Fate/stay night
9784047139558,Fate/stay night 4 (角川コミックス・エース 150-5),Fate/stay night
9784047139954,Fate/stay night 5 (角川コミックス・エース 150-6),Fate/stay night
9784047150478,Fate/stay night (6) (角川コミックス・エース 150-7),Fate/stay night
9784047150942,Fate/stay night (7) (角川コミックス・エース 150-8),Fate/stay night
9784047151444,Fate/stay night (8) (角川コミックス・エース 150-9),Fate/stay night
9784047152304,Fate/stay night (9) (角川コミックス・エース 150-10),Fate/stay night
9784047152830,Fate/stay night (10) (角川コミックス・エース 150-11),Fate/stay night
9784047153486,Fate/stay night (11) (角川コミックス・エース 150-12),Fate/stay night
9784047154247,Fate/stay night (12) (角川コミックス・エース 150-13),Fate/stay night
9784047155022,Ｆａｔｅ／ｓｔａｙ　ｎｉｇｈｔ　（１３） (角川コミックス・エース 150-14),Fate/stay night
9784047155855,Ｆａｔｅ／ｓｔａｙ　ｎｉｇｈｔ　（１４） (角川コミックス・エース 150-15),Fate/stay night
9784047156807,Fate/stay night (15)(角川コミックス・エース),Fate/stay night
9784047157644,Ｆａｔｅ／ｓｔａｙ　ｎｉｇｈｔ　（１６） (角川コミックス・エース 150-17),Fate/stay night
9784041202029,Fａｔｅ/ｓｔａｙ ｎｉｇｈｔ (18) (カドカワコミックスAエース),Fate/stay night
9784041205013,Fate/stay night (20) (カドカワコミックス・エース),Fate/stay night
9784861275333,flat (1) (BLADE COMICS),flat
9784861276286,flat 2 (BLADE COMICS),flat
9784861276903,flat(3) (BLADE COMICS),flat
9784861277757,flat(4) (アヴァルスコミックス),flat
9784861278822,flat(5) (アヴァルスコミックス),flat
9784800000279,flat 6 (マッグガーデンコミックス アヴァルスシリーズ),flat
9784800001627,flat 7 (マッグガーデンコミックス アヴァルスシリーズ),flat
9784063523560,よいこの黙示録(1) (イブニングKC),よいこの黙示録
9784063523966,よいこの黙示録(2) (イブニングKC),よいこの黙示録
9784107716378,くるみのき! 1 (BUNCH COMICS),くるみのき！
9784107716613,くるみのき！ ２ (BUNCH COMICS),くるみのき！
9784062828048,浜村渚の計算ノート (講談社Birth),浜村渚の計算ノート
9784062769815,浜村渚の計算ノート (講談社文庫),浜村渚の計算ノート
9784062771221,浜村渚の計算ノ-ト 2さつめ ふしぎの国の期末テスト (講談社文庫),浜村渚の計算ノート
9784063752274,雨乞い部っ!1 (講談社ラノベ文庫),雨乞い部っ！
9784253216104,木曜日のフルット 1 (少年チャンピオン・コミックス),木曜日のフルット
9784253216111,木曜日のフルット 2 (少年チャンピオン・コミックス),木曜日のフルット
9784253216128,木曜日のフルット 3 (少年チャンピオン・コミックス),木曜日のフルット
9784785930523,新逆八犬伝アウトカラーズ 1 (ヤングキングコミックス),新逆八犬伝アウトカラーズ
9784785931520,新逆八犬伝アウトカラーズ 2 (ヤングキングコミックス),新逆八犬伝アウトカラーズ
9784063107906,じゃりテン(1) (アフタヌーンKC),じゃりテン
9784063762853,永遠図書館(1) (シリウスコミックス),永遠図書館
9784063763164,永遠図書館(2) (シリウスコミックス),永遠図書館
9784063763423,永遠図書館(3) (シリウスコミックス),永遠図書館
9784063763782,永遠図書館(4)<完> (シリウスコミックス),永遠図書館
9784091350572,エンジェル・トランペット 1 (フラワーコミックスアルファ),エンジェル・トランペット
9784091352378,エンジェル・トランペット 2 (フラワーコミックスアルファ),エンジェル・トランペット
9784041497814,三毛猫ホームズの推理 (角川文庫 (5680)),三毛猫ホームズ
9784041497838,三毛猫ホームズの怪談 (角川文庫 (5784)),三毛猫ホームズ
9784041497821,三毛猫ホームズの追跡 (角川文庫 (6223)),三毛猫ホームズ
9784041497845,三毛猫ホームズの狂死曲(ラプソデイー) (角川文庫 (6248)),三毛猫ホームズ
9784334723514,三毛猫ホームズの「卒業」 (光文社文庫),三毛猫ホームズ
9784334727260,三毛猫ホームズの正誤表 (光文社文庫),三毛猫ホームズ
9784334727949,三毛猫ホームズの好敵手(ライバル) (光文社文庫),三毛猫ホームズ
9784334729752,三毛猫ホームズの無人島―ミステリー傑作集 (光文社文庫),三毛猫ホームズ
9784334731106,三毛猫ホームズの四捨五入 (光文社文庫),三毛猫ホームズ
9784334731724,三毛猫ホームズの暗闇 (光文社文庫),三毛猫ホームズ
9784334732424,三毛猫ホームズの大改装(リニユーアル) (光文社文庫),三毛猫ホームズ
9784334734121,三毛猫ホームズの恋占い (光文社文庫),三毛猫ホームズ
9784041879689,三毛猫ホームズの安息日 (角川文庫),三毛猫ホームズ
9784041879764,三毛猫ホームズの世紀末 (角川文庫),三毛猫ホームズ
9784334744366,三毛猫ホームズの談話室 (光文社文庫),三毛猫ホームズ
9784334073701,三毛猫ホームズの最後の審判 (カッパ・ノベルス),三毛猫ホームズ
9784334074234,三毛猫ホームズの花嫁人形 (カッパ・ノベルス),三毛猫ホームズ
9784334074647,三毛猫ホームズの仮面劇場 (カッパ・ノベルス),三毛猫ホームズ
9784334074975,三毛猫ホームズの戦争と平和 (カッパ・ノベルス),三毛猫ホームズ
9784334075392,三毛猫ホームズの卒業論文 (カッパ・ノベルス),三毛猫ホームズ
9784334076009,三毛猫ホームズの降霊会 (カッパノベルス),三毛猫ホームズ
9784334076276,三毛猫ホームズの危険な火遊び (カッパ・ノベルス),三毛猫ホームズ
9784334076511,三毛猫ホームズの暗黒迷路 (カッパ・ノベルス),三毛猫ホームズ
9784334924881,愛蔵版 三毛猫ホームズの推理,三毛猫ホームズ
9784087494716,ウェディングドレスはお待ちかね (南条姉妹シリーズ) (集英社文庫),南条姉妹
9784087496987,ベビーベッドはずる休み (南条姉妹シリーズ) (集英社文庫),南条姉妹
9784087483222,スクールバスは渋滞中 (南条姉妹シリーズ) (集英社文庫),南条姉妹
9784087487329,プリンセスはご・入・学 (南条姉妹シリーズ) (集英社文庫),南条姉妹
9784087476842,マドモアゼル、月光に消ゆ (南条姉妹シリーズ) (集英社文庫),南条姉妹
9784041497647,天使と悪魔 (角川文庫),天使と悪魔
9784041497708,天使よ盗むなかれ (角川文庫),天使と悪魔
9784041497777,天使は神にあらず (角川文庫),天使と悪魔
9784041879030,天使に似た人 (角川文庫),天使と悪魔
9784041879436,天使のごとく軽やかに (角川文庫),天使と悪魔
9784041879818,天使に涙とほほえみを (角川文庫),天使と悪魔
9784047881587,天使と悪魔 天使に涙とほほえみを (カドカワ・エンタテインメント),天使と悪魔
9784047881860,悪魔のささやき、天使の寝言―天使と悪魔 (カドカワ・エンタテインメント),天使と悪魔
9784048734844,霧の夜の戦慄―百年の迷宮,百年の迷宮
9784043870042,ドラキュラ城の舞踏会―百年の迷宮,百年の迷宮
9784334075200,悪夢の果て (カッパ・ノベルス),闇からの声
9784047881778,教室の正義―闇からの声 (カドカワ・エタンテインメント),闇からの声
9784022131713,あかりや(1) (眠れぬ夜の奇妙な話コミックス),あかりや
9784840142632,正捕手の篠原さん (MF文庫J),正捕手の篠原さん
9784840143721,正捕手の篠原さん 2 (MF文庫J),正捕手の篠原さん
9784840145749,正捕手の篠原さん3 (MF文庫J),正捕手の篠原さん
9784757531710,花咲くいろは(1) (ガンガンコミックスJOKER),花咲くいろは
9784757532946,花咲くいろは(2) (ガンガンコミックスJOKER),花咲くいろは
9784048675178,アクセル・ワールド〈1〉黒雪姫の帰還 (電撃文庫),アクセル・ワールド
9784048677608,ソードアート・オンライン〈1〉アインクラッド (電撃文庫),ソードアート・オンライン
9784063752625,銀糸の魔法式1 魔法使いの実習生 (講談社ラノベ文庫),銀糸の魔法式
9784778321383,うみべの女の子 1 (F×COMICS),うみべの女の子
9784901926171,天外レトロジカル 1 (BLADE COMICS),天外レトロジカル
9784901926492,天外レトロジカル 2 (BLADE COMICS),天外レトロジカル
9784861270079,天外レトロジカル 3 (BLADE COMICS),天外レトロジカル
9784861270895,天外レトロジカル 4 (BLADE COMICS),天外レトロジカル
9784861272219,天外レトロジカル 5 (BLADE COMICS),天外レトロジカル
9784861273094,天外レトロジカル 6 (BLADE COMICS),天外レトロジカル
9784861273827,天外レトロジカル(7) (BLADE COMICS),天外レトロジカル
9784861277122,京洛れぎおん(1) (ブレイドコミックス),京洛れぎおん
9784861278730,京洛れぎおん(2) (ブレイドコミックス),京洛れぎおん
9784861279720,京洛れぎおん 3 (BLADE COMICS),京洛れぎおん
9784800001054,京洛れぎおん 4 (BLADE COMICS),京洛れぎおん
9784758061643,かみあり 1 (IDコミックス REXコミックス),かみあり
9784758062053,かみあり 2 (IDコミックス REXコミックス),かみあり
9784758062633,かみあり 3 (IDコミックス REXコミックス),かみあり
9784758063432,かみあり 4巻 (IDコミックス REXコミックス),かみあり
9784048675680,あわいの森 (シルフコミックス―つくろい屋シリーズ (S-10-1)),つくろい屋
9784048689854,まどいの扉 (シルフコミックス 10-2 つくろい屋シリーズ 2),つくろい屋
9784832240797,セカイ魔王 (1) (まんがタイムKRコミックス),セカイ魔王
9784832242289,セカイ魔王 (2) (まんがタイムKRコミックス),セカイ魔王
9784048864084,三島凛は信じない! (1) (電撃コミックス),三島凛は信じない！
9784048910231,三島凛は信じない! (2) (電撃コミックス),三島凛は信じない！
9784048916899,三島凛は信じない! (3) (電撃コミックス),三島凛は信じない！
9784840144544,ホーカスポーカス 1 (MFコミックス フラッパーシリーズ),ホーカスポーカス
9784840147729,ホーカスポーカス 2 (フラッパーコミックス),ホーカスポーカス
9784091572776,書生葛木信二郎の日常 1 (サンデーGXコミックス),書生葛木信二郎の日常
9784592196716,忘却の首(しるし)と姫 1 (花とゆめCOMICS),忘却の首(しるし)と姫
9784592196723,忘却の首(しるし)と姫 2 (花とゆめCOMICS),忘却の首(しるし)と姫
9784758040754,文芸部発マイソロジー (一迅社文庫),文芸部発マイソロジー
9784758041058,文芸部発マイソロジー (2) (一迅社文庫),文芸部発マイソロジー
9784344818002,ミミツキ 1 (バーズコミックス),ミミツキ
9784344819290,ミミツキ 2 (バーズコミックス),ミミツキ
9784344821071,ミミツキ 3 (バーズコミックス),ミミツキ
9784344823280,ミミツキ (4) (バーズコミックス),ミミツキ
9784344825772,ミミツキ (5) (バーズコミックス),ミミツキ
9784344827066,ミミツキ (6) (バーズコミックス),ミミツキ
9784758055826,CHRONOS-DEEP- 1巻 (IDコミックス ZERO-SUMコミックス),CHRONOS-DEEP
9784840222372,GUNSLINGER GIRL 1 (電撃コミックス),GUNSLINGER GIRL
9784840224215,GUNSLINGER GIRL 2 (電撃コミックス),GUNSLINGER GIRL
9784840226226,GUNSLINGER GIRL 3 (電撃コミックス),GUNSLINGER GIRL
9784840228190,GUNSLINGER GIRL 4 (電撃コミックス),GUNSLINGER GIRL
9784840230728,GUNSLINGER GIRL 5 (電撃コミックス),GUNSLINGER GIRL
9784840232906,GUNSLINGER GIRL 6,GUNSLINGER GIRL
9784840235327,GUNSLINGER GIRL 7,GUNSLINGER GIRL
9784840238267,GUNSLINGER GIRL 8,GUNSLINGER GIRL
9784840241083,GUNSLINGER GIRL 9 (電撃コミックス),GUNSLINGER GIRL
9784048674324,GUNSLINGER GIRL 10 with Libretto! (電撃コミックス),GUNSLINGER GIRL
9784048679770,GUNSLINGER GIRL 11 (電撃コミックス),GUNSLINGER GIRL
9784048685672,GUNSLINGER GIRL 12 (電撃コミックス),GUNSLINGER GIRL
9784048704120,GUNSLINGER GIRL 13 (電撃コミックス),GUNSLINGER GIRL
9784048861731,GUNSLINGER GIRL(14) (DC) (電撃コミックス),GUNSLINGER GIRL
9784048912785,GUNSLINGER GIRL(15) (電撃コミックス),GUNSLINGER GIRL
9784048910743,GUNSLINGER GIRL(15) with Libretto!II (電撃コミックス),GUNSLINGER GIRL
9784840122979,いいなり!!吸血姫 1 (1) (MFコミックス アライブシリーズ),いいなり!! 吸血姫
9784840125901,いいなり!! 吸血姫2 (MFコミックス アライブシリーズ),いいなり!! 吸血姫
9784094520354,封殺鬼―花闇を抱きしもの〈上〉 (ルルル文庫),封殺鬼—花闇を抱きしもの
9784094520415,封殺鬼 花闇を抱きしもの〈下〉 (ルルル文庫),封殺鬼—花闇を抱きしもの
9784840221153,ポストガール (電撃文庫),ポストガール
9784840224383,ポストガール〈2〉 (電撃文庫),ポストガール
9784840226899,ポストガール〈3〉 (電撃文庫),ポストガール
9784840229081,ポストガール〈4〉 (電撃文庫),ポストガール
9784840234894,土くれのティターニア (電撃文庫 (1290)),土くれのティターニア
9784840237604,土くれのティターニア〈2〉 (電撃文庫),土くれのティターニア
9784253206426,さくらDISCORD 1 (少年チャンピオン・コミックス),さくらDISCORD
9784253206433,さくらDISCORD 2 (少年チャンピオン・コミックス),さくらDISCORD
9784253206440,さくらDISCORD 3 (少年チャンピオン・コミックス),さくらDISCORD
9784253206457,さくらDISCORD 4 (少年チャンピオン・コミックス),さくらDISCORD
9784253206464,さくらDISCORD 5 (少年チャンピオン・コミックス),さくらDISCORD
9784199502743,セントールの悩み 1 (リュウコミックス),セントールの悩み
9784199502873,セントールの悩み 2 (リュウコミックス),セントールの悩み
9784199503054,セントールの悩み 3 (リュウコミックス),セントールの悩み
9784199503252,セントールの悩み 4 (リュウコミックス),セントールの悩み
9784199503450,セントールの悩み 5 (リュウコミックス),セントールの悩み
9784048709200,フキゲンシンデレラ(1) (電撃ジャパンコミックス),フキゲンシンデレラ
9784063758320,新 仮面ライダーSPIRITS(1) (KCデラックス),新 仮面ライダーSPIRITS
9784063759839,新 仮面ライダーSPIRITS(3) (KCデラックス),新 仮面ライダーSPIRITS
9784063758894,Z-END(1) (KCデラックス),Z-END
9784091235831,妹先生 渚 1 (ゲッサン少年サンデーコミックススペシャル),妹先生 渚
9784091235848,妹先生 渚 2 (ゲッサン少年サンデーコミックススペシャル),妹先生 渚
9784091831453,淀川ベルトコンベア・ガール 1 (ビッグコミックス),淀川ベルトコンベア・ガール
9784091841032,淀川ベルトコンベア・ガール 3 (ビッグコミックス),淀川ベルトコンベア・ガール
9784125010069,“本の姫”は謳う〈1〉 (C・NOVELSファンタジア),“本の姫”は謳う
9784125010243,“本の姫”は謳う〈2〉 (C・NOVELSファンタジア),“本の姫”は謳う
9784125010373,“本の姫”は謳う〈3〉 (C・NOVELSファンタジア),“本の姫”は謳う
9784125010489,“本の姫”は謳う〈4〉 (C・NOVELSファンタジア),“本の姫”は謳う
9784125011233,夢の上〈1〉翠輝晶・蒼輝晶 (C・NOVELSファンタジア),夢の上
9784125011387,夢の上〈2〉紅輝晶・黄輝晶 (C・NOVELSファンタジア),夢の上
9784125011523,夢の上３ - 光輝晶・闇輝晶 (C・NOVELSファンタジア),夢の上
9784125011998,夢の上 - サウガ城の六騎将 (C・NOVELSファンタジア),夢の上
9784125012452,八百万の神に問う1 - 春 (C・NOVELSファンタジア),八百万の神に問う
9784125012605,八百万の神に問う2 - 夏 (C・NOVELSファンタジア),八百万の神に問う
9784840129244,70億の針 3 (MFコミックス フラッパーシリーズ),70億の針
9784877344511,宇宙の法則世界の基本 (HYPER HOT MILKコミックスシリーズ (008)),宇宙の法則世界の基本
9784877345242,宇宙の法則世界の基本 (2) (HYPER HOT MILKコミックスシリーズ (011)),宇宙の法則世界の基本
9784877348847,宇宙の法則世界の基本 先手オレ編,宇宙の法則世界の基本
9784840218559,ひまわり幼稚園物語あいこでしょ! 1 (電撃コミックス),ひまわり幼稚園物語あいこでしょ！
9784840220538,ひまわり幼稚園物語あいこでしょ! 2 (電撃コミックス),ひまわり幼稚園物語あいこでしょ！
9784840222051,ひまわり幼稚園物語あいこでしょ! 3 (電撃コミックス),ひまわり幼稚園物語あいこでしょ！
9784840223669,ひまわり幼稚園物語あいこでしょ! 4 (電撃コミックス),ひまわり幼稚園物語あいこでしょ！
9784840225663,ひまわり幼稚園物語あいこでしょ! 5 (電撃コミックス),ひまわり幼稚園物語あいこでしょ！
9784840227698,ひまわり幼稚園物語あいこでしょ! 6 (電撃コミックス),ひまわり幼稚園物語あいこでしょ！
9784840229821,ひまわり幼稚園物語あいこでしょ! 7 (電撃コミックス),ひまわり幼稚園物語あいこでしょ！
9784812460078,ちぃちゃんのおしながき 1 (バンブー・コミックス),ちぃちゃんのおしながき
9784812464816,ちぃちゃんのおしながき 2 (バンブー・コミックス),ちぃちゃんのおしながき
9784812465516,ちぃちゃんのおしながき 3 (バンブー・コミックス),ちぃちゃんのおしながき
9784812467862,ちぃちゃんのおしながき 4 (バンブー・コミックス),ちぃちゃんのおしながき
9784812468906,ちいちゃんのおしながき 5 (5) (バンブー・コミックス),ちいちゃんのおしながき
9784812471685,ちぃちゃんのおしながき 6 (バンブー・コミックス),ちぃちゃんのおしながき
9784832275287,風華のいる風景 1 (まんがタイムきららコミックス),風華のいる風景
9784832275485,風華のいる風景 2 (まんがタイムきららコミックス),風華のいる風景
9784812461495,いつもいっしょに 1 (バンブー・コミックス),いつもいっしょに
9784812465639,いつもいっしょに 2 (バンブー・コミックス),いつもいっしょに
9784832264762,おとなの生徒手帳 1 (まんがタイムコミックス),おとなの生徒手帳
9784832265424,おとなの生徒手帳 2 (まんがタイムコミックス),おとなの生徒手帳
9784344810327,女王蟻 1 (バーズコミックス),女王蟻
9784344812208,女王蟻 2 (バーズコミックス),女王蟻
9784344814165,女王蟻 3 (バーズコミックス),女王蟻
9784832276628,一年生になっちゃったら (1) (まんがタイムKRコミックス),一年生になっちゃったら
9784832277090,一年生になっちゃったら (2) (まんがタイムKRコミックス),一年生になっちゃったら
9784832277595,一年生になっちゃったら (3) (まんがタイムKRコミックス),一年生になっちゃったら
9784832278141,一年生になっちゃったら (4) (まんがタイムKRコミックス フォワードシリーズ),一年生になっちゃったら
9784832278677,一年生になっちゃったら (5) (まんがタイムKRコミックス フォワードシリーズ),一年生になっちゃったら
9784832279216,一年生になっちゃったら (6) (まんがタイムKRコミックス フォワードシリーズ),一年生になっちゃったら
9784832266483,今日から桜田ファミリア 1 (まんがタイムコミックス),今日から桜田ファミリア
9784785932251,おくさん 1 (ヤングキングコミックス),おくさん
9784812471692,ちぃちゃんのおしながき 繁盛記 1 (バンブー・コミックス),ちぃちゃんのおしながき繁盛記
9784812474570,ちいちゃんのおしながき　繁盛記（２） (バンブーコミックス),ちいちゃんのおしながき繁盛記
9784812476710,ちぃちゃんのおしながき繁盛記　③ (バンブーコミックス),ちぃちゃんのおしながき繁盛記
9784812477953,ちぃちゃんのおしながき繁盛記 4 (バンブーコミックス),ちぃちゃんのおしながき繁盛記
9784091243706,THE UNLIMITED 兵部京介 1 (少年サンデーコミックス),THE UNLIMITED 兵部京介
9784063846683,無重力コミュニケイション(1) (少年マガジンコミックス),無重力コミュニケイション
9784797337112,ジョン平とぼくと (GA文庫),ジョン平とぼくと
9784797339123,ジョン平とぼくと2 ジョン平と去っていった猫 (GA文庫),ジョン平とぼくと
9784797341706,ジョン平とぼくと3 ジョン平とぼくらの世界 (GA文庫),ジョン平とぼくと
9784797345315,ジョン平とぼくと4 ジョン平とぼくときみと (GA文庫 お 3-4),ジョン平とぼくと
9784797349160,晴れた空にくじら 浮船乗りと少女 (GA文庫),晴れた空にくじら
9784797352696,晴れた空にくじら 2 戦空の魔女 (GA文庫),晴れた空にくじら
9784797356304,晴れた空にくじら 3 浮鯨のいる空で (GA文庫),晴れた空にくじら
9784785919917,みずいろ 1 (コミックス),みずいろ
9784785931872,おいでませり 1 (ヤングキングコミックス),おいでませり
9784785933142,おいでませり 2 (ヤングキングコミックス),おいでませり
9784785934569,おいでませり 3 (ヤングキングコミックス),おいでませり
9784785939311,カラメルキッチュ遊撃隊 1 (ヤングキングコミックス),カラメルキッチュ遊撃隊
9784785940287,カラメルキッチュ遊撃隊 2 (ヤングキングコミックス),カラメルキッチュ遊撃隊
9784047273818,ヒナまつり 1 (ビームコミックス),ヒナまつり
9784047276291,ヒナまつり 2 (ビームコミックス),ヒナまつり
9784047278783,ヒナまつり 3 (ビームコミックス),ヒナまつり
9784047286030,ヒナまつり 4 (ビームコミックス),ヒナまつり
9784107716842,向ヒ兎堂日記  1 (BUNCH COMICS),向ヒ兎堂日記
9784847037528,めくりめくる 1巻 (ガムコミックスプラス),めくりめくる
9784847037764,めくりめくる 2巻 (ガムコミックスプラス),めくりめくる
9784847037771,めくりめくる 2巻 【初回限定版】 (ガムコミックスプラス),めくりめくる
9784847038044,めくりめくる 3巻 (ガムコミックスプラス),めくりめくる
9784847038341,めくりめくる 4巻 (ガムコミックスプラス),めくりめくる
9784048917834,ナンバーガール (1) (電撃コミックスNEXT),ナンバーガール
9784592147916,まおまりも 1 (ジェッツコミックス),まおまりも
9784592147923,まおまりも 2 (ジェッツコミックス),まおまりも
9784592147930,まおまりも 3 (ジェッツコミックス),まおまりも
9784829134092,花守の竜の叙情詩 (富士見ファンタジア文庫),花守の竜の叙情詩
9784829134696,花守の竜の叙情詩2 (富士見ファンタジア文庫),花守の竜の叙情詩
9784829135983,花守の竜の叙情詩３ (富士見ファンタジア文庫),花守の竜の叙情詩
9784088703596,クロガネ 1 (ジャンプコミックス),クロガネ
9784088703787,クロガネ 2 (ジャンプコミックス),クロガネ
9784088704234,クロガネ 3 (ジャンプコミックス),クロガネ
9784088704692,クロガネ 4 (ジャンプコミックス),クロガネ
9784088705026,クロガネ 5 (ジャンプコミックス),クロガネ
9784088705378,クロガネ 6 (ジャンプコミックス),クロガネ
9784088706016,クロガネ 7 (ジャンプコミックス),クロガネ
9784088706511,クロガネ 8 (ジャンプコミックス),クロガネ
9784041003497,あるゾンビ少女の災難 I (角川スニーカー文庫),あるゾンビ少女の災難
9784829134719,鍵開けキリエと封緘師  小箱は開くのを待っている (富士見ファンタジア文庫),鍵開けキリエと封緘師
9784829135204,鍵開けキリエと封緘師  モラトリアム・ミッドサマー (富士見ファンタジア文庫),鍵開けキリエと封緘師
9784829136027,鍵開けキリエと封緘師  そして世界の開く音 (富士見ファンタジア文庫),鍵開けキリエと封緘師
9784812475492,チカちゃんは知りたがる　（１） (バンブーコミックス),チカちゃんは知りたがる
9784812480441,チカちゃんは知りたがる 2 (バンブーコミックス),チカちゃんは知りたがる
9784757729643,よみきりものの… コオニライフ (ビームコミックス),よみきりものの…
9784757734982,よみきりものの…わらいの園々 (BEAM COMIX),よみきりものの…
9784757738515,よみきりものの… ヒトライフ (ビームコミックス),よみきりものの…
9784757741805,よみきりものの… やわらかくて グ (BEAM COMIX),よみきりものの…
9784757744981,よみきりものの… 北国楽園 (ビームコミックス),よみきりものの…
9784757749351,よみきりものの…たちこめるバラのかおり (BEAM COMIX),よみきりものの…
9784047262126,よみきりものの… 魂のにぎわい (BEAM COMIX),よみきりものの…
9784840129787,日々にパノラマ1 (MFコミックス フラッパーシリーズ),日々にパノラマ
9784840133814,日々にパノラマ 2 (MFコミックス フラッパーシリーズ),日々にパノラマ
9784840140089,日々にパノラマ 3 (MFコミックス フラッパーシリーズ),日々にパノラマ
9784047265974,あかねこの悪魔 1 (ビームコミックス) (BEAM COMIX),あかねこの悪魔
9784047271555,あかねこの悪魔 2 (ビームコミックス),あかねこの悪魔
9784047275300,あかねこの悪魔 3 (ビームコミックス),あかねこの悪魔
9784047278363,あかねこの悪魔 4 (ビームコミックス),あかねこの悪魔
9784047282896,あかねこの悪魔 5 (ビームコミックス),あかねこの悪魔
9784047287860,あかねこの悪魔 6 (ビームコミックス),あかねこの悪魔
9784048702409,やさしいセカイのつくりかた (1) (電撃コミックス),やさしいセカイのつくりかた
9784048860994,やさしいセカイのつくりかた (2) (電撃コミックス),やさしいセカイのつくりかた
9784048869324,やさしいセカイのつくりかた (3) (電撃コミックス),やさしいセカイのつくりかた
9784048918459,やさしいセカイのつくりかた (4) (電撃コミックス),やさしいセカイのつくりかた
9784797339376,ことこと。‾子と孤島‾ 1巻 Flex Comix,ことこと。〜子と孤島〜
9784797343519,ことこと。~子と孤島~ 2巻 Flex Comix,ことこと。〜子と孤島〜
9784797346053,ことこと。~子と孤島~3 (Flex Comix),ことこと。〜子と孤島〜
9784797349634,ことこと。~子と孤島~ 4 (Flex Comix),ことこと。〜子と孤島〜
9784088791562,ねじまきカギュー(1) (ヤングジャンプコミックス),ねじまきカギュー
9784094510065,樹海人魚 (ガガガ文庫),樹海人魚
9784094510577,樹海人魚 2 (ガガガ文庫),樹海人魚
9784840214179,ダブルブリッド (電撃文庫),ダブルブリッド
9784840214902,ダブルブリッド〈2〉 (電撃文庫 (0436)),ダブルブリッド
9784840215862,ダブルブリッド (3) (電撃文庫 (0462)),ダブルブリッド
9784840216838,ダブルブリッド〈4〉 (電撃文庫),ダブルブリッド
9784840217385,ダブルブリッド〈5〉 (電撃文庫),ダブルブリッド
9784840218696,ダブルブリッド (6) (電撃文庫 (0566)),ダブルブリッド
9784840219952,ダブルブリッド〈7〉 (電撃文庫),ダブルブリッド
9784840222747,ダブルブリッド〈8〉 (電撃文庫),ダブルブリッド
9784840225434,ダブルブリッド〈9〉 (電撃文庫),ダブルブリッド
9784048670654,ダブルブリッド〈10〉 (電撃文庫),ダブルブリッド
9784048673495,ダブルブリッド―Drop Blood (電撃文庫),ダブルブリッド
9784088701615,1/11 じゅういちぶんのいち 1 (ジャンプコミックス),1/11 じゅういちぶんのいち
9784088702445,1/11 じゅういちぶんのいち 2 (ジャンプコミックス),1/11 じゅういちぶんのいち
9784088704265,1/11 じゅういちぶんのいち 3 (ジャンプコミックス),1/11 じゅういちぶんのいち
9784088704883,1/11 じゅういちぶんのいち 4 (ジャンプコミックス),1/11 じゅういちぶんのいち
9784088705422,1/11 じゅういちぶんのいち 5 (ジャンプコミックス),1/11 じゅういちぶんのいち
9784088707914,1/11 じゅういちぶんのいち 6 (ジャンプコミックス),1/11 じゅういちぶんのいち
9784088791784,つきロボ 1 (ヤングジャンプコミックス・ウルトラ),つきロボ
9784088793818,つきロボ 2 (ヤングジャンプコミックス・ウルトラ),つきロボ
9784088796048,つきロボ 3 (ヤングジャンプコミックス・ウルトラ),つきロボ
9784832278967,少女素数 (1) (まんがタイムKRコミックス フォワードシリーズ),少女素数
9784832279582,少女素数 (2) (まんがタイムKRコミックス フォワードシリーズ),少女素数
9784832241022,少女素数 (3) (まんがタイムKRコミックス フォワードシリーズ),少女素数
9784832242173,少女素数 (4) (まんがタイムKRコミックス フォワードシリーズ),少女素数
9784044267032,円環少女 (角川スニーカー文庫),円環少女〈サークリットガール〉
9784044267049,円環少女 (2) 煉獄の虚神(上) (角川スニーカー文庫),円環少女〈サークリットガール〉
9784044267056,円環少女 (3) 煉獄の虚神(下) (角川スニーカー文庫),円環少女〈サークリットガール〉
9784044267063,円環少女 (4) よるべなき鉄槌 (角川スニーカー文庫),円環少女〈サークリットガール〉
9784044267070,円環少女(サークリットガール)〈5〉魔導師たちの迷宮 (角川スニーカー文庫),円環少女〈サークリットガール〉
9784044267087,円環少女(サークリットガール)〈6〉太陽がくだけるとき (角川スニーカー文庫),円環少女〈サークリットガール〉
9784044267094,円環少女(サークリットガール)〈7〉夢のように、夜明けのように (角川スニーカー文庫),円環少女〈サークリットガール〉
9784044267100,円環少女    (8)裏切りの天秤 (角川スニーカー文庫),円環少女〈サークリットガール〉
9784044267117,円環少女  (9)公館陥落 (角川スニーカー文庫),円環少女〈サークリットガール〉
9784044267124,円環少女  10 運命の螺旋 (角川スニーカー文庫),円環少女〈サークリットガール〉
9784044267131,円環少女  (11)新世界の門 (角川スニーカー文庫),円環少女〈サークリットガール〉
9784044267148,円環少女  （１２）真なる悪鬼 (角川スニーカー文庫),円環少女〈サークリットガール〉
9784044267155,円環少女 (13) 荒れ野の楽園 (角川スニーカー文庫),円環少女〈サークリットガール〉
9784575940817,ヴァイゼフラウ 1 (アクションコミックス COMIC SEED!シリーズ),ヴァイゼフラウ
9784575941197,ヴァイゼフラウ 2 (アクションコミックス COMIC SEED!シリーズ),ヴァイゼフラウ
9784832279025,境界線上のリンボ (1) (まんがタイムKRコミックス),境界線上のリンボ
9784832240087,境界線上のリンボ (2) (まんがタイムKRコミックス),境界線上のリンボ
9784832241466,箱入りドロップス (1) (まんがタイムKRコミックス),箱入りドロップス
9784832242913,箱入りドロップス (2) (まんがタイムKRコミックス),箱入りドロップス
9784091273710,絶対可憐チルドレン 1 (少年サンデーコミックス),絶対可憐チルドレン
9784091273727,絶対可憐チルドレン 2 (少年サンデーコミックス),絶対可憐チルドレン
9784091200280,絶対可憐チルドレン 3 (少年サンデーコミックス),絶対可憐チルドレン
9784091201270,絶対可憐チルドレン 4 (少年サンデーコミックス),絶対可憐チルドレン
9784091204158,絶対可憐チルドレン 5 (少年サンデーコミックス),絶対可憐チルドレン
9784091205780,絶対可憐チルドレン 6 (少年サンデーコミックス),絶対可憐チルドレン
9784091207081,絶対可憐チルドレン 7 (少年サンデーコミックス),絶対可憐チルドレン
9784091210104,絶対可憐チルドレン 8 (少年サンデーコミックス),絶対可憐チルドレン
9784091210685,絶対可憐チルドレン 9 (少年サンデーコミックス),絶対可憐チルドレン
9784091211675,絶対可憐チルドレン 10 (少年サンデーコミックス),絶対可憐チルドレン
9784091212153,絶対可憐チルドレン 11 (少年サンデーコミックス),絶対可憐チルドレン
9784091213020,絶対可憐チルドレン 12 (少年サンデーコミックス),絶対可憐チルドレン
9784091213976,絶対可憐チルドレン 13 (少年サンデーコミックス),絶対可憐チルドレン
9784091590602,絶対可憐チルドレン 13 (小学館プラスワン・コミックシリーズ),絶対可憐チルドレン
9784091214652,絶対可憐チルドレン 14 (少年サンデーコミックス),絶対可憐チルドレン
9784091215154,絶対可憐チルドレン 15 (少年サンデーコミックス),絶対可憐チルドレン
9784091215987,絶対可憐チルドレン 16 (少年サンデーコミックス),絶対可憐チルドレン
9784091220073,絶対可憐チルドレン 17 (少年サンデーコミックス),絶対可憐チルドレン
9784091217455,絶対可憐チルドレン 18 (少年サンデーコミックス),絶対可憐チルドレン
9784091220288,絶対可憐チルドレン 19 (少年サンデーコミックス),絶対可憐チルドレン
9784091221483,絶対可憐チルドレン 20 (少年サンデーコミックス),絶対可憐チルドレン
9784091222589,絶対可憐チルドレン 21 (少年サンデーコミックス),絶対可憐チルドレン
9784091590756,絶対可憐チルドレン 予告編DVDつき特別限定版 21 (少年サンデーコミックス),絶対可憐チルドレン
9784091590817,絶対可憐チルドレン 22 小冊子付き限定版 (小学館プラスワン・コミックシリーズ),絶対可憐チルドレン
9784091226259,絶対可憐チルドレン 23 (少年サンデーコミックス),絶対可憐チルドレン
9784091227195,絶対可憐チルドレン 24 (少年サンデーコミックス),絶対可憐チルドレン
9784091590916,絶対可憐チルドレン / 25 スクールカレンダー付限定版 (小学館プラス・アンコミックスシリーズ),絶対可憐チルドレン
9784091232380,絶対可憐チルドレン 27 (少年サンデーコミックス),絶対可憐チルドレン
9784091590992,絶対可憐チルドレン 28 兵部京介フィギュアストラップつき限定版 (小学館プラス・アンコミックスシリーズ),絶対可憐チルドレン
9784091591098,絶対可憐チルドレン 29 明石薫カラフルストラップつき限定版 (小学館プラス・アンコミックスシリーズ),絶対可憐チルドレン
9784091591203,絶対可憐チルドレン 30 限定版 増補版さぷりめんと総集編付Vol．2 (小学館プラス・アンコミックスシリーズ),絶対可憐チルドレン
9784091237934,絶対可憐チルドレン 31 (少年サンデーコミックス),絶対可憐チルドレン
9784091591357,絶対可憐チルドレン 32 ラバーストラップ付き限定版 (小学館プラス・アンコミックスシリーズ),絶対可憐チルドレン
9784091591388,絶対可憐チルドレン 33 ラバーストラップ付き限定版 (小学館プラス・アンコミックスシリーズ),絶対可憐チルドレン
9784099418137,絶対可憐チルドレン 34 ドラマCD付き特別版 (少年サンデーコミックス),絶対可憐チルドレン
9784091591609,絶対可憐チルドレン 35 ミニクリアファイル付き限定版 (小学館プラス・アンコミックスシリーズ),絶対可憐チルドレン
9784048707220,Monochrome Myst 1 (電撃コミックス),Monochrome Myst
9784592188728,それでも世界は美しい 1 (花とゆめCOMICS),それでも世界は美しい
9784592194729,それでも世界は美しい 2 (花とゆめCOMICS),それでも世界は美しい
9784592194736,それでも世界は美しい 3 (花とゆめCOMICS),それでも世界は美しい
9784592194743,それでも世界は美しい 4 (花とゆめCOMICS),それでも世界は美しい
9784592194750,それでも世界は美しい 5 (花とゆめCOMICS),それでも世界は美しい
9784199501043,くおんの森 (1) (リュウコミックス),くおんの森
9784199501609,くおんの森 2 (リュウコミックス),くおんの森
9784199502323,くおんの森 3 (リュウコミックス),くおんの森
9784199502996,くおんの森 4(リュウコミックス),くおんの森
9784107714909,童話迷宮 上(Bunch Comics Extra),童話迷宮
9784107714916,童話迷宮 下  (Bunch Comics Extra),童話迷宮
9784063106411,水面座高校文化祭 1 (アフタヌーンKC),水面座高校文化祭
9784063107074,水面座高校文化祭(2) (アフタヌーンKC),水面座高校文化祭
9784063107654,水面座高校文化祭(3) (アフタヌーンKC),水面座高校文化祭
9784063761467,冒険エレキテ島(1) (KCデラックス),冒険エレキテ島
9784832241695,meth・e・meth (1) (まんがタイムKRコミックス フォワードシリーズ),meth・e・meth
9784832242753,meth・e・meth (2) (まんがタイムKRコミックス フォワードシリーズ),meth・e・meth
9784063695014,空の境界 the Garden of sinners(1) (星海社COMICS),空の境界 the Garden of sinners
9784063695069,空の境界 the Garden of sinners(2) (星海社COMICS),空の境界 the Garden of sinners
9784063695083,空の境界 the Garden of sinners(3) (星海社COMICS),空の境界 the Garden of sinners
9784047279940,ましまろ文學ガール 1巻 (ビームコミックス),ましまろ文學ガール
9784832277212,御伽楼館 1 (まんがタイムKRコミックス エールシリーズ),御伽楼館
9784832278400,御伽楼館 2 (まんがタイムKRコミックス エールシリーズ),御伽楼館
9784758070713,此花亭奇譚 1 (IDコミックス 百合姫コミックス),此花亭奇譚
9784758071062,此花亭奇譚 2 (IDコミックス 百合姫コミックス),此花亭奇譚
9784575837162,ボクとワタシの変愛事情(1) (アクションコミックス),ボクとワタシの変愛事情
9784575839296,ボクとワタシの変愛事情(2) (アクションコミックス（コミックハイ！）),ボクとワタシの変愛事情
9784812476772,ぶんぶくかまのめし　① (バンブーコミックス),ぶんぶくかまのめし
9784757717015,吉永さん家のガーゴイル (ファミ通文庫),吉永さん家のガーゴイル
9784757717886,吉永さん家のガーゴイル〈2〉 (ファミ通文庫),吉永さん家のガーゴイル
9784757718715,吉永さん家のガーゴイル〈3〉 (ファミ通文庫),吉永さん家のガーゴイル
9784757719675,吉永さん家のガーゴイル〈4〉 (ファミ通文庫),吉永さん家のガーゴイル
9784757720336,吉永さん家のガーゴイル〈5〉 (ファミ通文庫),吉永さん家のガーゴイル
9784757721333,吉永さん家のガーゴイル〈6〉 (ファミ通文庫),吉永さん家のガーゴイル
9784757722514,吉永さん家のガーゴイル7 (ファミ通文庫),吉永さん家のガーゴイル
9784757724884,吉永さん家のガーゴイル(8) (ファミ通文庫),吉永さん家のガーゴイル
9784757726635,吉永さん家のガーゴイル9 (ファミ通文庫),吉永さん家のガーゴイル
9784757727427,吉永さん家のガーゴイル10 (ファミ通文庫),吉永さん家のガーゴイル
9784757730007,吉永さん家のガーゴイル 11 (ファミ通文庫),吉永さん家のガーゴイル
9784757735033,吉永さん家のガーゴイル 12 (ファミ通文庫),吉永さん家のガーゴイル
9784757737938,吉永さん家のガーゴイル〈13〉 (ファミ通文庫),吉永さん家のガーゴイル
9784757742307,吉永さん家のガーゴイル14 (ファミ通文庫),吉永さん家のガーゴイル
9784757743335,吉永さん家のガーゴイル 15 (ファミ通文庫),吉永さん家のガーゴイル
9784757723566,コッペとBB団 その1 (ファミ通文庫),コッペとBB団
9784757726031,コッペとBB団 その2 (ファミ通文庫),コッペとBB団
9784757740099,コッペとBB団 その3 (ファミ通文庫),コッペとBB団
9784757728660,ガーゴイルおるたなてぃぶ (ファミ通文庫),ガーゴイルおるたなてぃぶ
9784757733251,ガーゴイルおるたなてぃぶ2 (ファミ通文庫),ガーゴイルおるたなてぃぶ
9784757736313,ガーゴイルおるたなてぃぶ3 (ファミ通文庫),ガーゴイルおるたなてぃぶ
9784757739789,ガーゴイルおるたなてぃぶ4 (ファミ通文庫),ガーゴイルおるたなてぃぶ
9784757745636,魔王城一限目 (ファミ通文庫),魔王城
9784757747661,魔王城二限目 (ファミ通文庫),魔王城
9784047260931,魔王城三限目 (ファミ通文庫),魔王城
9784047263161,魔王城四限目 (ファミ通文庫),魔王城
9784047266544,魔王城五限目 (ファミ通文庫),魔王城
9784829133989,本日の騎士ミロク1 (富士見ファンタジア文庫),本日の騎士ミロク
9784829134221,本日の騎士ミロク2 (富士見ファンタジア文庫),本日の騎士ミロク
9784829134559,本日の騎士ミロク3 (富士見ファンタジア文庫),本日の騎士ミロク
9784829135143,本日の騎士ミロク4 (富士見ファンタジア文庫),本日の騎士ミロク
9784829135570,本日の騎士ミロク５ (富士見ファンタジア文庫),本日の騎士ミロク
9784829135907,本日の騎士ミロク６ (富士見ファンタジア文庫),本日の騎士ミロク
9784829136225,本日の騎士ミロク７ (富士見ファンタジア文庫),本日の騎士ミロク
9784829136539,本日の騎士ミロク８ (富士見ファンタジア文庫),本日の騎士ミロク
9784829136935,本日の騎士ミロク９ (富士見ファンタジア文庫),本日の騎士ミロク
9784829137338,本日の騎士ミロク１０ (富士見ファンタジア文庫),本日の騎士ミロク
9784047270800,Zぼーいず／ぷりんせす (ファミ通文庫),Zぼーいず／ぷりんせす
9784047272248,Zぼーいず/ぷりんせす2 (ファミ通文庫),Zぼーいず／ぷりんせす
9784047274662,Zぼーいず／ぷりんせす 3 (ファミ通文庫),Zぼーいず／ぷりんせす
9784829137727,デーゲンメイデン  1.台場、両断 (富士見ファンタジア文庫),デーゲンメイデン
9784829138137,デーゲンメイデン  2.池袋、穿孔 (富士見ファンタジア文庫),デーゲンメイデン
9784829138595,デーゲンメイデン  3.後楽園、破砕 (角川ファンタジア文庫),デーゲンメイデン
9784829139158,デーゲンメイデン    4.東京、崩壊 (富士見ファンタジア文庫),デーゲンメイデン
9784041003558,七星降霊学園のアクマ  01 グラトニー・シールド  (角川スニーカー文庫),七星降霊学園のアクマ
9784041005439,七星降霊学園のアクマ    02 スロウス・バレット (角川スニーカー文庫),七星降霊学園のアクマ
9784041007174,七星降霊学園のアクマ  七星降霊学園のアクマ  03 ラース・フィンガー (角川スニーカー文庫),七星降霊学園のアクマ
9784041008904,七星降霊学園のアクマ  04 グリード・ウィング (角川スニーカー文庫),七星降霊学園のアクマ
9784847037085,Deep Forest 1 (GUM COMICS),Deep Forest
9784847037436,Deep Forest 2巻 (GUM COMICS),Deep Forest
9784344818996,痕跡師の憂鬱 (幻狼ファンタジアノベルス),痕跡師の憂鬱
9784344820258,痕跡師の憂鬱〈2〉密室の錬金術 (幻狼ファンタジアノベルス),痕跡師の憂鬱
9784840140331,ペーパーウエイト アイ1 (MFコミックス フラッパーシリーズ),ペーパーウエイト アイ
9784063145953,いもうとデイズ(1) (アフタヌーンKC),いもうとデイズ
9784063106473,いもうとデイズ(2) (アフタヌーンKC),いもうとデイズ
9784063107043,いもうとデイズ(3) (アフタヌーンKC),いもうとデイズ
9784063107388,いもうとデイズ(4) <完> (アフタヌーンKC),いもうとデイズ
9784063805789,千年万年りんごの子(1) (KCx ITAN),千年万年りんごの子
9784063806250,千年万年りんごの子(2) (KCx ITAN),千年万年りんごの子
9784537128000,紡tsumugi 1 (ニチブンコミックス SH comics),紡 -tsumugi-
9784840224871,空ノ鐘の響く惑星で (電撃文庫),空ノ鐘の響く惑星で
9784840226035,空ノ鐘の響く惑星で〈2〉 (電撃文庫),空ノ鐘の響く惑星で
9784840226868,空ノ鐘の響く惑星で〈3〉 (電撃文庫),空ノ鐘の響く惑星で
9784840227582,空ノ鐘の響く惑星で〈4〉 (電撃文庫),空ノ鐘の響く惑星で
9784840228466,空ノ鐘の響く惑星で〈5〉 (電撃文庫),空ノ鐘の響く惑星で
9784840229388,空ノ鐘の響く惑星(ほし)で〈6〉 (電撃文庫),空ノ鐘の響く惑星で
9784840230841,空ノ鐘の響く惑星で〈7〉 (電撃文庫),空ノ鐘の響く惑星で
9784840231817,空ノ鐘の響く惑星で〈8〉 (電撃文庫),空ノ鐘の響く惑星で
9784840232418,空ノ鐘の響く惑星で〈9〉 (電撃文庫),空ノ鐘の響く惑星で
9784840233484,空ノ鐘の響く惑星で〈10〉 (電撃文庫),空ノ鐘の響く惑星で
9784840234856,空ノ鐘の響く惑星(ほし)で (11) (電撃文庫 (1286)),空ノ鐘の響く惑星で
9784840235891,空ノ鐘の響く惑星で〈12〉 (電撃文庫),空ノ鐘の響く惑星で
9784840239141,空ノ鐘の響く惑星で―外伝‐tea party’s story‐ (電撃文庫),空ノ鐘の響く惑星で
9784840240666,輪環の魔導師―闇語りのアルカイン (電撃文庫),輪環の魔導師
9784840241915,輪環の魔導師 (2) 旅の終わりの森 (電撃文庫 わ 4-26),輪環の魔導師
9784048671323,輪環の魔導師3 竜骨の迷宮と黒狼の姫 (電撃文庫),輪環の魔導師
9784048672689,輪環の魔導師〈4〉ハイヤードの竜使い (電撃文庫),輪環の魔導師
9784048675987,輪環の魔導師〈5〉傀儡の城 (電撃文庫),輪環の魔導師
9784091215796,アラタカンガタリ~革神語~ 1 (少年サンデーコミックス),アラタ カンガタリ〜革神語〜
9784091216298,アラタ カンガタリ~革神語~ 2 (少年サンデーコミックス),アラタ カンガタリ〜革神語〜
9784091220202,アラタ カンガタリ~革神語~ 3 (少年サンデーコミックス),アラタ カンガタリ〜革神語〜
9784091217493,アラタ カンガタリ~革神語~ 4 (少年サンデーコミックス),アラタ カンガタリ〜革神語〜
9784091220448,アラタ カンガタリ~革神語~ 5 (少年サンデーコミックス),アラタ カンガタリ〜革神語〜
9784091221926,アラタカンガタリ〜革神語〜 6 (少年サンデーコミックス),アラタ カンガタリ〜革神語〜
9784091223326,アラタカンガタリ〜革神語〜 7 (少年サンデーコミックス),アラタ カンガタリ〜革神語〜
9784091225238,アラタカンガタリ〜革神語〜 8 (少年サンデーコミックス),アラタ カンガタリ〜革神語〜
9784091226969,アラタ カンガタリ〜革神語〜 9 (少年サンデーコミックス),アラタ カンガタリ〜革神語〜
9784091227959,アラタカンガタリ〜革神語〜 10 (少年サンデーコミックス),アラタ カンガタリ〜革神語〜
9784091228994,アラタカンガタリ〜革神語〜 11 (少年サンデーコミックス),アラタ カンガタリ〜革神語〜
9784088468839,花と落雷 1 (マーガレットコミックス),花と落雷
9784088450483,花と落雷 2 (マーガレットコミックス),花と落雷
9784894254442,月の娘 1 (HJ文庫),月の娘
9784894255012,月の娘 2 (HJ文庫),月の娘
9784048542685,鋼殻のレギオス シークレット・サイド 第1巻 (あすかコミックスDX),鋼殻のレギオス シークレット・サイド
9784048543217,鋼殻のレギオス シークレット・サイド 第2巻 (あすかコミックスDX),鋼殻のレギオス シークレット・サイド
9784592198420,燈港メリーローズ 1 (花とゆめCOMICSスペシャル),燈港メリーローズ
9784592198277,燈港(トウラン)メリーローズ 2 (花とゆめCOMICSスペシャル),燈港メリーローズ
9784592198284,燈港(トウラン)メリーローズ 3 (花とゆめCOMICSスペシャル),燈港メリーローズ
9784592196334,嘘解きレトリック 1 (花とゆめCOMICS),嘘解きレトリック
9784344805071,幻影博覧会(1) (バーズコミックス),幻影博覧会
9784344809390,幻影博覧会 2 (バーズコミックス),幻影博覧会
9784344815872,幻影博覧会 3 (バーズコミックス),幻影博覧会
9784344822238,幻影博覧会 4 (バーズコミックス),幻影博覧会
9784063145564,ACONY(1) (アフタヌーンKC),ACONY
9784063145878,ACONY(2) (アフタヌーンKC),ACONY
9784063106954,ACONY(3) <完> (アフタヌーンKC),ACONY
9784344817951,羊のうた 1 (幻冬舎コミックス漫画文庫 と 1-1),羊のうた
9784344818712,羊のうた2,羊のうた
9784344819504,羊のうた 3 (幻冬舎コミックス漫画文庫 と 1-3),羊のうた
9784344820081,羊のうた 4 (幻冬舎コミックス漫画文庫 と 1-4),羊のうた
9784091843364,マホロミ 1 (BIG SPIRITS COMICS SPECIAL),マホロミ 時空建築幻視譚
9784091851345,マホロミ 2: 時空建築幻視譚 (ビッグ コミックス〔スペシャル〕),マホロミ 時空建築幻視譚
9784575836561,カルボナードクラウン 1 (アクションコミックス),カルボナードクラウン
9784832241404,prism (1) (まんがタイムKRコミックス つぼみシリーズ),prism
9784094510362,Bullet Butlers〜虎は弾丸のごとく疾駆する〜(1) (ガガガ文庫 (ガひ1-1)),Bullet Butlers
9784094510508,Bullet Butlers 〜黒騎士は弾丸のごとく駆け抜ける〜2 (ガガガ文庫),Bullet Butlers
9784061844407,卒業 (講談社文庫),加賀恭一郎
9784061851306,眠りの森 (講談社文庫),加賀恭一郎
9784062645751,どちらかが彼女を殺した (講談社文庫),加賀恭一郎
9784062730174,悪意 (講談社文庫),加賀恭一郎
9784062733854,私が彼を殺した (講談社文庫),加賀恭一郎
9784062736695,嘘をもうひとつだけ (講談社文庫),加賀恭一郎
9784062764445,赤い指 (講談社文庫),加賀恭一郎
9784062157711,新参者,加賀恭一郎
9784062168069,麒麟の翼 (特別書き下ろし),加賀恭一郎
9784167110079,探偵ガリレオ (文春文庫),ガリレオ
9784167110086,予知夢 (文春文庫),ガリレオ
9784167110123,容疑者Xの献身 (文春文庫),ガリレオ
9784167110130,ガリレオの苦悩 (文春文庫),ガリレオ
9784167110147,聖女の救済 (文春文庫),ガリレオ
9784167110154,真夏の方程式 (文春文庫),ガリレオ
9784757524507,ひぐらしのなく頃に解 皆殺し編 1 (Gファンタジーコミックス),ひぐらしのなく頃に解 皆殺し編
9784757525887,ひぐらしのなく頃に解 皆殺し編 2 (Gファンタジーコミックス),ひぐらしのなく頃に解 皆殺し編
9784757526624,ひぐらしのなく頃に解 皆殺し編 3 (Gファンタジーコミックス),ひぐらしのなく頃に解 皆殺し編
9784757527621,ひぐらしのなく頃に解 皆殺し編 4 (Gファンタジーコミックス),ひぐらしのなく頃に解 皆殺し編
9784757528536,ひぐらしのなく頃に解 皆殺し編 5 (Gファンタジーコミックス),ひぐらしのなく頃に解 皆殺し編
9784757529717,ひぐらしのなく頃に解 皆殺し編 6 (Ｇファンタジーコミックス),ひぐらしのなく頃に解 皆殺し編
9784048542166,百目姫捕物絵巻 (1) (怪COMIC),百目姫捕物絵巻
9784758061780,このこここのこ 1 (IDコミックス REXコミックス),このこここのこ
9784758061957,このこここのこ 2 (IDコミックス REXコミックス),このこここのこ
9784758062251,このこここのこ 3巻 (IDコミックス REXコミックス),このこここのこ
9784575839159,ヤシコー初代生徒会(1) (アクションコミックス),ヤシコー初代生徒会
9784575840292,ヤシコー初代生徒会(2) (アクションコミックス（コミックハイ！）),ヤシコー初代生徒会
9784575841954,ひとつ屋根の下の(1) (アクションコミックス(コミックハイ!)),ひとつ屋根の下の
9784063762846,カタリベのりすと(1) (シリウスコミックス),カタリベのりすと
9784063763157,カタリベのりすと(2) (シリウスコミックス),カタリベのりすと
9784091825346,ビッグコミック×藤子・F・不二雄SF短編集 上巻 (ビッグコミックススペシャル),ビッグコミック×藤子・F・不二雄SF短編集
9784091825353,ビッグコミック×藤子・F・不二雄SF短編集 下巻 (ビッグコミックススペシャル),ビッグコミック×藤子・F・不二雄SF短編集
9784758070461,飴色紅茶館歓談 (1) (IDコミックス 百合姫コミックス),飴色紅茶館歓談
9784758071673,飴色紅茶館歓談 2巻 (IDコミックス 百合姫コミックス),飴色紅茶館歓談
9784048862929,ひそひそ 1 (シルフコミックス 36-1),ひそひそ
9784048911832,ひそひそ 2 (シルフコミックス 36-2),ひそひそ
9784091214201,月光条例 1 (少年サンデーコミックス),月光条例
9784091214690,月光条例 2 (少年サンデーコミックス),月光条例
9784091215192,月光条例 3 (少年サンデーコミックス),月光条例
9784091590657,月光条例 4アートボード+専用ディスプレースタンド限定版 (小学館プラスワン・コミックシリーズ),月光条例
9784091220189,月光条例 5 (少年サンデーコミックス),月光条例
9784091217479,月光条例 6 (少年サンデーコミックス),月光条例
9784091218865,月光条例 7 (少年サンデーコミックス),月光条例
9784091221490,月光条例 8 (少年サンデーコミックス),月光条例
9784091222978,月光条例 9 (少年サンデーコミックス),月光条例
9784091225085,月光条例 10 (少年サンデーコミックス),月光条例
9784091226600,月光条例 11 (少年サンデーコミックス),月光条例
9784091227713,月光条例 12 (少年サンデーコミックス),月光条例
9784091228543,月光条例 13 (少年サンデーコミックス),月光条例
9784091231994,月光条例 14 (少年サンデーコミックス),月光条例
9784063210095,ああっ女神さまっ(1) (アフタヌーンKC (1009)),ああっ女神さまっ
9784063210132,ああっ女神さまっ(2) (アフタヌーンKC (1013)),ああっ女神さまっ
9784063210170,ああっ女神さまっ(3) (アフタヌーンKC (1017)),ああっ女神さまっ
9784063210217,ああっ女神さまっ(4) (アフタヌーンKC (1021)),ああっ女神さまっ
9784063210231,ああっ女神さまっ(5) (アフタヌーンKC (1023)),ああっ女神さまっ
9784063210255,ああっ女神さまっ(6) (アフタヌーンKC (1025)),ああっ女神さまっ
9784063210286,ああっ女神さまっ(7) (アフタヌーンKC (1028)),ああっ女神さまっ
9784063210309,ああっ女神さまっ(8) (アフタヌーンKC (1030)),ああっ女神さまっ
9784063210378,ああっ女神さまっ(9) (アフタヌーンKC (1037)),ああっ女神さまっ
9784063210408,ああっ女神さまっ(10) (アフタヌーンKC (1040)),ああっ女神さまっ
9784063210446,ああっ女神さまっ(11) (アフタヌーンKC (1044)),ああっ女神さまっ
9784063210491,ああっ女神さまっ(12) (アフタヌーンKC (1049)),ああっ女神さまっ
9784063210576,ああっ女神さまっ(13) (アフタヌーンKC (1057)),ああっ女神さまっ
9784063210675,ああっ女神さまっ(14) (アフタヌーンKC (1067)),ああっ女神さまっ
9784063210743,ああっ女神さまっ(15) (アフタヌーンKC (1074)),ああっ女神さまっ
9784063210767,ああっ女神さまっ(16) (アフタヌーンKC (1076)),ああっ女神さまっ
9784063210910,ああっ女神さまっ(17) (アフタヌーンKC (1091)),ああっ女神さまっ
9784063210934,ああっ女神さまっ(18) (アフタヌーンKC (1093)),ああっ女神さまっ
9784063142198,ああっ女神さまっ(19) (アフタヌーンKC (219)),ああっ女神さまっ
9784063142228,ああっ女神さまっ(20) (アフタヌーンKC (222)),ああっ女神さまっ
9784063211146,ああっ女神さまっ(21) (アフタヌーンKC (1114)),ああっ女神さまっ
9784063211184,ああっ女神さまっ(22) (アフタヌーンKC (1118)),ああっ女神さまっ
9784063211290,ああっ女神さまっ(23) (アフタヌーンKC),ああっ女神さまっ
9784063211368,ああっ女神さまっ(24) (アフタヌーンKC),ああっ女神さまっ
9784063211429,ああっ女神さまっ(25) (アフタヌーンKC),ああっ女神さまっ
9784063211504,ああっ女神さまっ(26) (アフタヌーンKC (1150)),ああっ女神さまっ
9784063211542,ああっ女神さまっ(27) (アフタヌーンKC (1154)),ああっ女神さまっ
9784063211580,ああっ女神さまっ(28) (アフタヌーンKC (1158)),ああっ女神さまっ
9784063211634,ああっ女神さまっ(29) (アフタヌーンKC (1163)),ああっ女神さまっ
9784063211665,ああっ女神さまっ (30),ああっ女神さまっ
9784063211696,ああっ女神さまっ(31) (アフタヌーンKC (1169)),ああっ女神さまっ
9784063211733,ああっ女神さまっ(32) (アフタヌーンKC (1173)),ああっ女神さまっ
9784063211771,ああっ女神さまっ(33) (アフタヌーンKC (1177)),ああっ女神さまっ
9784063211801,ああっ女神さまっ(34) (アフタヌーンKC (1180)),ああっ女神さまっ
9784063211856,ああっ女神さまっ(35) (アフタヌーンKC),ああっ女神さまっ
9784063211863,ああっ女神さまっ(36) (アフタヌーンKC),ああっ女神さまっ
9784063211887,ああっ女神さまっ(37) (アフタヌーンKC),ああっ女神さまっ
9784063211900,ああっ女神さまっ(38) (アフタヌーンKC),ああっ女神さまっ
9784063211917,ああっ女神さまっ(39) (アフタヌーンKC),ああっ女神さまっ
9784063211931,ああっ女神さまっ(40) (アフタヌーンKC),ああっ女神さまっ
9784063211948,ああっ女神さまっ(41) (アフタヌーンKC),ああっ女神さまっ
9784063211955,ああっ女神さまっ(42) (アフタヌーンKC),ああっ女神さまっ
9784063107746,ああっ女神さまっ(43) (アフタヌーンKC),ああっ女神さまっ
9784044741013,黒猫の愛読書 I  -THE BLACK CAT’S CODEX-  隠された闇の系譜 (角川スニーカー文庫),黒猫の愛読書 -THE BLACK CAT’S CODEX-
9784861272455,はこぶね白書 1 (BLADE COMICS),はこぶね白書
9784861273186,はこぶね白書 2 (BLADE COMICS),はこぶね白書
9784861273551,はこぶね白書(3) ブレイドコミックス,はこぶね白書
9784861274060,はこぶね白書(4) (BLADE COMICS),はこぶね白書
9784861274664,はこぶね白書(5) (BLADE COMICS),はこぶね白書
9784861275012,はこぶね白書 6 (BLADE COMICS),はこぶね白書
9784861275166,はこぶね白書(7) (BLADE COMICS),はこぶね白書
9784861275432,ナイトメア・チルドレン 1 (BLADE COMICS),ナイトメア・チルドレン
9784861275449,ナイトメア・チルドレン 2 (BLADE COMICS),ナイトメア・チルドレン
9784861275586,ナイトメア・チルドレン 3 (BLADE COMICS),ナイトメア・チルドレン
9784861275593,ナイトメア・チルドレン 4 (BLADE COMICS),ナイトメア・チルドレン
9784861275708,ナイトメア・チルドレン 5 (BLADE COMICS),ナイトメア・チルドレン
9784861277054,忘却のクレイドル(1) (BLADE COMICS),忘却のクレイドル
9784861277061,忘却のクレイドル(2) (BLADE COMICS),忘却のクレイドル
9784861277610,忘却のクレイドル(3) (アヴァルスコミックス),忘却のクレイドル
9784861278136,忘却のクレイドル(4) (アヴァルスコミックス),忘却のクレイドル
9784861278655,忘却のクレイドル(5)(完) (アヴァルスコミックス) (マッグガーデンコミックス アヴァルスシリーズ),忘却のクレイドル
9784800001535,蒼きユピテル 1 (マッグガーデンコミックス Beat'sシリーズ),蒼きユピテル
9784800001542,蒼きユピテル 2 (マッグガーデンコミックス Beat'sシリーズ),蒼きユピテル
9784253255714,ヴォイニッチホテル 1 (ヤングチャンピオン烈コミックス),ヴォイニッチホテル
9784253255721,ヴォイニッチホテル 2 (ヤングチャンピオン烈コミックス),ヴォイニッチホテル
9784091885647,ニッケルオデオン 赤 (IKKI COMIX),ニッケルオデオン
9784091886163,ニッケルオデオン 緑 (IKKI COMIX),ニッケルオデオン
9784091331809,港町猫町 (フラワーコミックスアルファ),港町猫町
9784091336477,港町猫町 2 (フラワーコミックスアルファ),港町猫町
9784091345813,港町猫町 3 (フラワーコミックスアルファ),港町猫町
9784061823617,空の境界 上  (講談社ノベルス),空の境界
9784061823624,空の境界 下 (講談社ノベルス),空の境界
9784062758925,空の境界(上) (講談社文庫),空の境界 文庫版
9784062759205,空の境界(中) (講談社文庫),空の境界 文庫版
9784062759465,空の境界(下) (講談社文庫),空の境界 文庫版
9784061389199,空の境界 未来福音 (星海社文庫),空の境界
9784063843736,ネコあね。(1) (少年マガジンコミックス),ネコあね。
9784063844542,ネコあね。(2) (少年マガジンコミックス),ネコあね。
9784063845303,ネコあね。(3) (少年マガジンコミックス),ネコあね。
9784063846249,ネコあね。(4) (少年マガジンコミックス),ネコあね。
9784063847130,ネコあね。(5) (少年マガジンコミックス),ネコあね。
9784063848076,ネコあね。(6) <完> (少年マガジンコミックス),ネコあね。
9784840115735,神様のおきにいり (MF文庫J),神様のおきにいり
9784840117241,神様のおきにいり〈2〉びしゃがつくの巻 (MF文庫J),神様のおきにいり
9784840117630,神様のおきにいり〈3〉ぬれおんなの巻 (MF文庫J),神様のおきにいり
9784840118255,神様のおきにいり〈4〉ねこまたの巻 (MF文庫J),神様のおきにいり
9784840120630,クダンの話をしましょうか (MF文庫J),クダンの話をしましょうか
9784840121286,クダンの話をしましょうか〈2〉 (MF文庫J),クダンの話をしましょうか
9784840124287,もふもふっ珠枝さま! (MF文庫J),もふもふっ珠枝さま！
9784840126366,もふもふっ珠枝さま!〈2〉 (MF文庫J),もふもふっ珠枝さま！
9784840127608,もふもふっ珠枝さま!〈3〉 (MF文庫J),もふもふっ珠枝さま！
9784758080385,限定彼女 (1) (IDコミックス 4コマKINGSぱれっとコミックス),限定彼女
9784758080767,限定彼女 (2) (IDコミックス 4コマKINGSぱれっとコミックス),限定彼女
9784758081276,限定彼女 (3) (IDコミックス 4コマKINGSぱれっとコミックス),限定彼女
9784344815551,東京探偵姫 1 (バーズコミックス),東京探偵姫
9784344816916,東京探偵姫 2 (バーズコミックス),東京探偵姫
9784766335156,アリサのために 1 (YA!コミックス),アリサのために
9784766335385,アリサのために 2 (YA!コミックス),アリサのために
9784829134184,かしこみっ! 1  かみさまは氏子募集中ですが、なにか!? (富士見ファンタジア文庫),かしこみっ！
9784048544115,“文学少女”と美味しい噺(レシピ) 第1巻 (あすかコミックスDX),“文学少女”と美味しい噺（レシピ）
9784048544672,“文学少女”と美味しい噺(レシピ) 第2巻 (あすかコミックスDX),“文学少女”と美味しい噺（レシピ）
9784091237408,二ノ前しいの使い方 1 (少年サンデーコミックススペシャル),二ノ前しいの使い方
9784048680301,ホーロロギオン 1 (電撃コミックス),ホーロロギオン
9784048701464,ホーロロギオン 3 (電撃コミックス),ホーロロギオン
9784253215510,幻仔譚じゃのめ (1) (少年チャンピオン・コミックス),幻仔譚じゃのめ
9784253215527,幻仔譚じゃのめ 2 (少年チャンピオン・コミックス),幻仔譚じゃのめ
9784253215534,幻仔譚じゃのめ 3 (少年チャンピオン・コミックス),幻仔譚じゃのめ
9784253215541,幻仔譚じゃのめ 4 (少年チャンピオン・コミックス),幻仔譚じゃのめ
9784253215558,幻仔譚じゃのめ 5 (少年チャンピオン・コミックス),幻仔譚じゃのめ
9784253215565,幻仔譚じゃのめ 6 (少年チャンピオン・コミックス),幻仔譚じゃのめ
9784253215572,幻仔譚じゃのめ 7 (少年チャンピオンコミックス),幻仔譚じゃのめ
9784253076821,ブルーイッシュ 1 (プリンセスコミックス),ブルーイッシュ
9784253076838,ブルーイッシュ 2 (プリンセスコミックス),ブルーイッシュ
9784832279476,アクアリウム (1) (まんがタイムKRコミックス),アクアリウム
9784832240681,アクアリウム (2) (まんがタイムKRコミックス),アクアリウム
9784758071857,きものなでしこ 1巻 (IDコミックス 百合姫コミックス),きものなでしこ
9784592143611,ふたばの教室 1 (ジェッツコミックス),ふたばの教室
9784592143628,ふたばの教室 2 (ジェッツコミックス),ふたばの教室
9784832232440,あかつきの教室 1 (芳文社コミックス),あかつきの教室
9784832232655,あかつきの教室 2 (芳文社コミックス),あかつきの教室
9784832269569,少女カフェ（1） (まんがタイムコミックス),少女カフェ
9784812477106,野村２４時　① (バンブーコミックス　),野村２４時
9784812483435,野村24時 2 (バンブーコミックス ),野村２４時
9784063768565,なぎとのどかの萌える不動産(1) (KCデラックス Kiss),なぎとのどかの萌える不動産
9784063846379,ゼウスの種(1) (少年マガジンコミックス),ゼウスの種
9784840129459,断裁分離のクライムエッジ 1 (MFコミックス アライブシリーズ),断裁分離のクライムエッジ
9784840133647,断裁分離のクライムエッジ ２ (MFコミックス アライブシリーズ),断裁分離のクライムエッジ
9784840137379,断裁分離のクライムエッジ ③ (MFコミックス アライブシリーズ),断裁分離のクライムエッジ
9784840140287,断裁分離のクライムエッジ 4 (MFコミックス アライブシリーズ),断裁分離のクライムエッジ
9784840144179,断裁分離のクライムエッジ 5 (MFコミックス アライブシリーズ),断裁分離のクライムエッジ
9784840147514,断裁分離のクライムエッジ 6 (アライブコミックス),断裁分離のクライムエッジ
9784840150255,断裁分離のクライムエッジ 7 (アライブコミックス),断裁分離のクライムエッジ
9784125011622,災獣たちの楽土１ - 雷獅子の守り (C・NOVELSファンタジア),災獣たちの楽土
9784048683241,ヴァンダル画廊街の奇跡 (電撃文庫),ヴァンダル画廊街の奇跡
9784048685474,ヴァンダル画廊街の奇跡〈2〉 (電撃文庫),ヴァンダル画廊街の奇跡
9784048700573,ヴァンダル画廊街の奇跡〈3〉 (電撃文庫),ヴァンダル画廊街の奇跡
9784047125223,異国迷路のクロワーゼ 1 (角川コミックス ドラゴンJr. 111-2),異国迷路のクロワーゼ
9784047126091,異国迷路のクロワーゼ(2) (角川コミックス ドラゴンJr. 111-3),異国迷路のクロワーゼ
9784063731767,獣の奏者(1) (シリウスコミックス),獣の奏者
9784063731996,獣の奏者(2) (シリウスコミックス),獣の奏者
9784063762365,獣の奏者(3) (シリウスコミックス),獣の奏者
9784063762617,獣の奏者(4) (シリウスコミックス),獣の奏者
9784063763072,獣の奏者(5) (シリウスコミックス),獣の奏者
9784063763409,獣の奏者(6) (シリウスコミックス),獣の奏者
9784063763997,獣の奏者(7) (シリウスコミックス),獣の奏者
9784199502385,メルモちゃん 1 (リュウコミックス),メルモちゃん
9784757536692,ハヤチネ!(1) (ガンガンコミックスONLINE),ハヤチネ！
9784757538610,ハヤチネ!(2) (ガンガンコミックスONLINE),ハヤチネ！
9784757540057,ハヤチネ! (3) (ガンガンコミックスONLINE),ハヤチネ！
9784047269682,星屑ニーナ 1巻 (ビームコミックス),星屑ニーナ
9784044271015,氷菓 (角川文庫),古典部
9784044271022,愚者のエンドロール (角川文庫),古典部
9784044271039,クドリャフカの順番 (角川文庫),古典部
9784044271046,遠まわりする雛 (角川文庫),古典部
9784041003251,ふたりの距離の概算 (角川文庫),古典部
9784048738118,遠まわりする雛,古典部
9784048740753,ふたりの距離の概算,古典部
9784488451059,秋期限定栗きんとん事件〈上〉 (創元推理文庫),秋期限定栗きんとん事件
9784488451066,秋期限定栗きんとん事件 下 (創元推理文庫 M よ 1-6),秋期限定栗きんとん事件
9784488451073,折れた竜骨 上 (創元推理文庫),折れた竜骨
9784488451080,折れた竜骨 下 (創元推理文庫),折れた竜骨
9784840222778,キーリ―死者たちは荒野に眠る (電撃文庫),キーリ
9784840223805,キーリ〈2〉砂の上の白い航跡 (電撃文庫),キーリ
9784840224352,キーリ〈3〉惑星へ往く囚人たち (電撃文庫),キーリ
9784840226042,キーリ〈4〉長い夜は深淵のほとりで (電撃文庫),キーリ
9784840227285,キーリ (5) はじまりの白日の庭 (上) 電撃文庫 (0960),キーリ
9784840227797,キーリ (6) はじまりの白日の庭 (下) 電撃文庫 か 10-6,キーリ
9784840231251,キーリ〈7〉幽谷の風は吠きながら (電撃文庫),キーリ
9784840233071,キーリ〈8〉死者たちは荒野に永眠る〈上〉 (電撃文庫),キーリ
9784840233897,キーリ〈9〉死者たちは荒野に永眠る〈下〉 (電撃文庫),キーリ
9784840230278,カスタム・チャイルド (電撃文庫),カスタム・チャイルド
9784048682237,カスタム・チャイルド ―罪と罰― (メディアワークス文庫),カスタム・チャイルド
9784840236058,鳥籠荘の今日も眠たい住人たち〈1〉 (電撃文庫),鳥籠荘の今日も眠たい住人たち
9784840237277,鳥籠荘の今日も眠たい住人たち〈2〉 (電撃文庫),鳥籠荘の今日も眠たい住人たち
9784048681452,クロノ×セクス×コンプレックス 1 (電撃文庫 か 10-17),クロノ×セクス×コンプレックス
9784048684057,クロノ×セクス×コンプレックス〈2〉 (電撃文庫),クロノ×セクス×コンプレックス
9784048700450,クロノ×セクス×コンプレックス〈3〉 (電撃文庫),クロノ×セクス×コンプレックス
9784591118054,五龍世界(WOOLONG WORLD)―霧廟に臥す龍,五龍世界
9784591124482,五龍世界Ⅱ,五龍世界
9784861279669,メイプルさんの紅茶時間 1 (マッグガーデンコミックス EDENシリーズ),メイプルさんの紅茶時間
9784800000347,メイプルさんの紅茶時間 2 (マッグガーデンコミックス EDENシリーズ),メイプルさんの紅茶時間
9784091833983,花もて語れ 1 (BIG SPIRITS COMICS SPECIAL),花もて語れ
9784091837899,花もて語れ 2 (BIG SPIRITS COMICS SPECIAL),花もて語れ
9784091841056,花もて語れ 3 (BIG SPIRITS COMICS SPECIAL),花もて語れ
9784091844194,花もて語れ 4 (BIG SPIRITS COMICS SPECIAL),花もて語れ
9784091847096,花もて語れ 5 (BIG SPIRITS COMICS SPECIAL),花もて語れ
9784091850898,花もて語れ 7 (BIG SPIRITS COMICS SPECIAL),花もて語れ
9784091853011,花もて語れ 8 (BIG SPIRITS COMICS SPECIAL),花もて語れ
9784048674478,鳥篭荘の今日も眠たい住人たち 1 (シルフコミックス 9-1),鳥篭荘の今日も眠たい住人たち
9784757528024,学園ナイトメア 1 (ガンガンコミックスONLINE),学園ナイトメア
9784757529380,学園ナイトメア 2 (ガンガンコミックスＯＮＬＩＮＥ),学園ナイトメア
9784832233225,おもいで橋 我楽多本舗 1 (芳文社コミックス),おもいで橋 我楽多本舗
9784832233270,おもいで橋 我楽多本舗 2 (芳文社コミックス),おもいで橋 我楽多本舗
9784829163368,エクスプローラー 覚醒少年 (富士見ミステリー文庫),エクスプローラー
9784829163498,憂感少女―エクスプローラー〈2〉 (富士見ミステリー文庫),エクスプローラー
9784829163658,白黒乱舞―エクスプローラー〈3〉 (富士見ミステリー文庫),エクスプローラー
9784829163726,仇敵撃破―エクスプローラー〈4〉 (富士見ミステリー文庫),エクスプローラー
9784829163979,エクスプローラー〈5〉学園三昧 (富士見ミステリー文庫),エクスプローラー
9784757525665,メテオエンブレム 2 (ガンガンコミックス),メテオエンブレム
9784047267602,兎の角 1巻 (ビームコミックス),兎の角
9784047274488,兎の角 2巻 (ビームコミックス),兎の角
9784047286320,兎の角 3巻 (ビームコミックス),兎の角
9784047282865,ハコニワ喜劇 1巻 (ビームコミックス),ハコニワ喜劇
9784047282872,ハコニワ喜劇 2巻 (ビームコミックス),ハコニワ喜劇
9784088701318,逢魔ヶ刻動物園 1 (ジャンプコミックス),逢魔ヶ刻動物園
9784088701677,逢魔ヶ刻動物園 2 (ジャンプコミックス),逢魔ヶ刻動物園
9784088701950,逢魔ヶ刻動物園 3 (ジャンプコミックス),逢魔ヶ刻動物園
9784088702759,逢魔ヶ刻動物園 5 (ジャンプコミックス),逢魔ヶ刻動物園
9784063728224,刻刻(1) (モーニングKC),刻刻
9784063728231,刻刻(2) (モーニングKC),刻刻
9784063729245,刻刻(3) (モーニングKC),刻刻
9784063729993,刻刻(4) (モーニングKC),刻刻
9784832268883,ハッピーエンドではじめよう 1 (まんがタイムコミックス),ハッピーエンドではじめよう
9784088672489,ロマンチカ クロック 1 (りぼんマスコットコミックス),ロマンチカ クロック
9784088672724,ロマンチカ クロック 2 (りぼんマスコットコミックス),ロマンチカ クロック
9784757728295,鬼切り夜鳥子 ~百鬼夜行学園~ (ファミ通文庫),鬼切り夜鳥子
9784757733466,鬼切り夜鳥子2 京都ミステリーツアー (ファミ通文庫),鬼切り夜鳥子
9784757733275,108年目の初恋。 (ファミ通文庫),108年目の初恋。
9784757735941,108年目の初恋。2 (ファミ通文庫),108年目の初恋。
9784344813441,デアボレプシの夜は永い 1 (バーズコミックス),デアボレプシの夜は永い
9784344815636,デアボレプシの夜は永い 2 (バーズコミックス),デアボレプシの夜は永い
9784063842586,波打際のむろみさん(1) (少年マガジンコミックス),波打際のむろみさん
9784063843187,波打際のむろみさん(2) (少年マガジンコミックス),波打際のむろみさん
9784063844337,波打際のむろみさん(3) (少年マガジンコミックス),波打際のむろみさん
9784063845242,波打際のむろみさん(4) (少年マガジンコミックス),波打際のむろみさん
9784063846058,波打際のむろみさん(5) (少年マガジンコミックス),波打際のむろみさん
9784063846584,波打際のむろみさん(6) (少年マガジンコミックス),波打際のむろみさん
9784063847413,波打際のむろみさん(7) (少年マガジンコミックス),波打際のむろみさん
9784063848298,波打際のむろみさん(8) (少年マガジンコミックス),波打際のむろみさん
9784063949155,波打際のむろみさん(9) (少年マガジンコミックス),波打際のむろみさん
9784063843231,聖☆ピスタチオ学園(1) (少年マガジンコミックス),聖☆ピスタチオ学園
9784840233194,かみちゅ! 1 (電撃コミックス),かみちゅ！
9784840237871,かみちゅ! 2 (電撃コミックス),かみちゅ！
9784253215213,ヘレンesp 1 (少年チャンピオン・コミックス),ヘレンesp
9784253215220,ヘレンesp 2 (少年チャンピオン・コミックス),ヘレンesp
9784253218481,名探偵マーニー 1 (少年チャンピオン・コミックス),名探偵マーニー
9784253218498,名探偵マーニー 2 (少年チャンピオン・コミックス),名探偵マーニー
9784253218504,名探偵マーニー 3 (少年チャンピオン・コミックス),名探偵マーニー
9784253218511,名探偵マーニー 4 (少年チャンピオン・コミックス),名探偵マーニー
9784757723191,かえってきた、ぺとぺとさん(1) フーコの空 (ファミ通文庫),かえってきた、ぺとぺとさん
9784757723559,かえってきた、ぺとぺとさん〈2〉まっくらやみのピィ (ファミ通文庫),かえってきた、ぺとぺとさん
9784840121422,七本腕のジェシカ (MF文庫J),七本腕のジェシカ
9784840123662,七本腕のジェシカ2 (MF文庫J),七本腕のジェシカ
9784059035268,ミラクルチロル44キロ―Aパート・チロルアレンジ (メガミ文庫),ミラクルチロル44キロ
9784059035282,ミラクルチロル44キロ―Bパート・ミラクルフレーバー (メガミ文庫),ミラクルチロル44キロ
9784840130967,コトノハ遣いは囁かない (MF文庫J),コトノハ遣いは囁かない
9784840132558,コトノハ遣いは囁かない〈2〉 (MF文庫J),コトノハ遣いは囁かない
9784063763768,氷結鏡界のエデン(1) (シリウスコミックス),氷結鏡界のエデン
9784832279858,Felice (1) (まんがタイムKRコミックス),Felice
9784832241176,Felice (2) (まんがタイムKRコミックス),Felice
9784757524569,トリフィルファンタジア 1 (Gファンタジーコミックス),トリフィルファンタジア
9784757527102,トリフィルファンタジア 2 (Gファンタジーコミックス),トリフィルファンタジア
9784757741737,“文学少女”と神に臨む作家 上 (ファミ通文庫),“文学少女”と神に臨む作家
9784757743717,“文学少女” と神に臨む作家 下 (ファミ通文庫),“文学少女”と神に臨む作家
9784757745780,“文学少女”と恋する挿話集 1 (ファミ通文庫),“文学少女”と恋する挿話集
9784757750395,“文学少女”と恋する挿話集 2 (ファミ通文庫),“文学少女”と恋する挿話集
9784047264878,“文学少女”と恋する挿話集3 (ファミ通文庫),“文学少女”と恋する挿話集
9784047269606,“文学少女”と恋する挿話集4 (ファミ通文庫),“文学少女”と恋する挿話集
9784047272811,"""葵"" ヒカルが地球にいたころ……(1) (ファミ通文庫)",ヒカルが地球にいたころ……
9784047274693,“夕顔” ヒカルが地球にいたころ……(2) (ファミ通文庫),ヒカルが地球にいたころ……
9784047279889,“朧月夜” ヒカルが地球にいたころ……(4) (ファミ通文庫),ヒカルが地球にいたころ……
9784063731392,リアライズ（1） (シリウスコミックス),リアライズ
9784063731866,リアライズ（2） (シリウスコミックス),リアライズ
9784063762136,リアライズ（3）　＜完＞ (シリウスコミックス),リアライズ
9784840111614,鳥は鳥であるために (MF文庫J),鳥は鳥であるために
9784840112109,鳥は鳥であるために〈2〉 (MF文庫J),鳥は鳥であるために
9784840112543,鳥は鳥であるために〈3〉 (MF文庫J),鳥は鳥であるために
9784840112895,鳥は鳥であるために (4) (MF文庫J),鳥は鳥であるために
9784829134641,天使から百年  魔人と主人と廃棄物 (富士見ファンタジア文庫),天使から百年
9784829135693,天使から百年２  天使から零年 (富士見ファンタジア文庫),天使から百年
9784044264017,幽霊は行方不明―Dear My Ghost (角川スニーカー文庫),幽霊は行方不明—Dear My Ghost
9784044264024,幽霊は身元不明―Dear My Ghost〈2〉 (角川スニーカー文庫),幽霊は身元不明—Dear My Ghost
9784797337150,神様が用意してくれた場所 (GA文庫),神様が用意してくれた場所
9784797342963,神様が用意してくれた場所2 明日をほんの少し (GA文庫 や 1-2),神様が用意してくれた場所
9784797348668,神様が用意してくれた場所 3 いつかの少年 (GA文庫),神様が用意してくれた場所
9784832268494,一緒にかえろう 1 (まんがタイムコミックス),一緒にかえろう
9784592885351,まるいち的風景 第1巻 (白泉社文庫 や 7-5),まるいち的風景
9784592885368,まるいち的風景 (第2巻) (白泉社文庫 (や-7-6)),まるいち的風景
9784840129664,高杉さん家のおべんとう 1,高杉さん家のおべんとう
9784840133333,高杉さん家のおべんとう 2 (MFコミックス),高杉さん家のおべんとう
9784840137447,高杉さん家のおべんとう ３ (MFコミックス フラッパーシリーズ),高杉さん家のおべんとう
9784840140409,高杉さん家のおべんとう ４ (MFコミックス フラッパーシリーズ),高杉さん家のおべんとう
9784840144438,高杉さん家のおべんとう 5 (フラッパー),高杉さん家のおべんとう
9784840147422,高杉さん家のおべんとう6 (フラッパーコミックス),高杉さん家のおべんとう
9784840150743,高杉さん家のおべんとう 7 (フラッパーコミックス),高杉さん家のおべんとう
9784391142501,高杉さん家のおべんとうもふーっ となるHappyレシピ,高杉さん家のおべんとう
9784592198512,理不尽のみかた 1 (花とゆめCOMICS),理不尽のみかた
9784840137799,群緑の時雨 ① (MFコミックス フラッパーシリーズ),群緑の時雨
9784840140676,群緑の時雨　2 (MFコミックス フラッパーシリーズ),群緑の時雨
9784840147286,群緑の時雨 3 (フラッパーコミックス),群緑の時雨
9784840150347,群緑の時雨 4 (フラッパーコミックス),群緑の時雨
9784047262720,イン・ワンダーランド (BEAM COMIX),イン・ワンダーランド
9784047275829,イン・ワンダーランド 2 (ビームコミックス),イン・ワンダーランド
9784757521155,鬼切様の箱入娘 1 (ガンガンコミックス),鬼切様の箱入娘
9784757524743,鬼切様の箱入娘 2 (ガンガンコミックス),鬼切様の箱入娘
9784757527195,鬼切様の箱入娘 3 (ガンガンコミックス),鬼切様の箱入娘
9784757530225,鬼切様の箱入娘(4) (完) (ガンガンコミックス),鬼切様の箱入娘
9784785938413,かみわたし 1―神様の箸渡し (ヤングキングコミックス),かみわたし—神様の箸渡し
9784785939526,かみわたし 2―神様の箸渡し (ヤングキングコミックス),かみわたし—神様の箸渡し
9784757530669,君と紙ヒコーキと。 1 (ガンガンコミックスＯＮＬＩＮＥ),君と紙ヒコーキと。
9784757536333,一週間フレンズ。(1) (ガンガンコミックスJOKER),一週間フレンズ。
9784757537965,一週間フレンズ。(2) (ガンガンコミックスJOKER),一週間フレンズ。
9784757539532,一週間フレンズ。(3) (ガンガンコミックスJOKER),一週間フレンズ。
9784812474259,はるかぜ日和 (1) (バンブーコミックス WIN SELECTION),はるかぜ日和
9784812476123,はるかぜ日和　② (バンブーコミックス　　WIN　SELECTION),はるかぜ日和
9784088777313,ぎんぎつね 1 (ヤングジャンプコミックス),ぎんぎつね
9784088778334,ぎんぎつね 2 (ヤングジャンプコミックス),ぎんぎつね
9784088790213,ぎんぎつね 3 (ヤングジャンプコミックス),ぎんぎつね
9784088790985,ぎんぎつね 4 (ヤングジャンプコミックス),ぎんぎつね
9784088791814,ぎんぎつね 5 (ヤングジャンプコミックス),ぎんぎつね
9784088792484,ぎんぎつね 6 (ヤングジャンプコミックス),ぎんぎつね
9784088793597,ぎんぎつね 7 (ヤングジャンプコミックス),ぎんぎつね
9784088795041,ぎんぎつね 8 (ヤングジャンプコミックス),ぎんぎつね
9784575841169,ディス魔トピア(1) (アクションコミックス(コミックハイ! )),ディス魔トピア
9784785927028,花咲け!おとめ塾 上 (ヤングコミックコミックス),花咲け!おとめ塾
9784785927035,花咲け!おとめ塾 下 (ヤングコミックコミックス),花咲け!おとめ塾
9784832232709,一緒に暮らすための約束をいくつか 1 (芳文社コミックス),一緒に暮らすための約束をいくつか
9784832232921,一緒に暮らすための約束をいくつか 2 (芳文社コミックス),一緒に暮らすための約束をいくつか
9784832233508,10歳からの家族計画 1 (芳文社コミックス),10歳からの家族計画
9784757535763,ブラパ THE BLACK PARADE(1) (ヤングガンガンコミックス),ブラパ THE BLACK PARADE
9784757539488,ブラパ THE BLACK PARADE(2)(完) (ヤングガンガンコミックス),ブラパ THE BLACK PARADE
9784863492981,ガーデンI  (TENMA COMICS) (TENMAコミックス),ガーデン
9784063730555,アメフラシ（1） (シリウスコミックス),アメフラシ
9784063730821,アメフラシ（2）　＜完＞ (シリウスコミックス),アメフラシ
9784757527348,ナイトメア・ゴー・ラウンド 1 (ヤングガンガンコミックス),ナイトメア・ゴー・ラウンド
9784757528833,ナイトメア・ゴー・ラウンド 2 (ヤングガンガンコミックス),ナイトメア・ゴー・ラウンド
9784785935030,ブレイドブレイカー 1 (ヤングキングコミックス),ブレイドブレイカー
9784785936204,ブレイドブレイカー 2 (ヤングキングコミックス),ブレイドブレイカー
9784785937553,ブレイドブレイカー 3 (ヤングキングコミックス),ブレイドブレイカー
9784785938871,ブレイドブレイカー 4 (ヤングキングコミックス),ブレイドブレイカー
9784048739122,エッジ 上,エッジ
9784048739139,エッジ 下,エッジ
9784047154353,アクジキ (1) (角川コミックス・エース 279-1),アクジキ
9784785934965,セカイのミカタ 1 (ヤングキングコミックス),セカイのミカタ
9784785936105,セカイのミカタ 2 (ヤングキングコミックス),セカイのミカタ
9784041200452,ブラック★ロックシューター　イノセントソウル　（１） (角川コミックス・エース 279-2),ブラック★ロックシューター イノセントソウル
9784041200469,ブラック★ロックシューター　イノセントソウル　（２） (角川コミックス・エース 279-3),ブラック★ロックシューター イノセントソウル
9784041202845,ブラック★ロックシューター イノセントソウル (3) (カドカワコミックス・エース),ブラック★ロックシューター イノセントソウル
9784041206706,ヤオツクモ -1 (カドカワコミックス・エース),ヤオツクモ
9784829134450,1×10  藤宮十貴子は懐かない (富士見ファンタジア文庫),1×10 藤宮十貴子は懐かない
9784829134825,1×10  藤宮十貴子は懐かない2 (富士見ファンタジア文庫),1×10 藤宮十貴子は懐かない
9784829135136,1×10  藤宮十貴子は懐かない3 (富士見ファンタジア文庫),1×10 藤宮十貴子は懐かない
9784829135563,１×１０  藤宮十貴子は懐かない４ (富士見ファンタジア文庫),1×10 藤宮十貴子は懐かない
9784829136133,１×１０ 　 藤宮十貴子は懐かない５ 　 (富士見ファンタジア文庫),1×10 藤宮十貴子は懐かない
9784861278532,歩くんの〇〇な日々(1) (アヴァルスコミックス),歩くんの〇〇な日々
9784861279539,歩くんの○○な日々(2)完 (アヴァルスコミックス),歩くんの〇〇な日々
9784832240377,キャンディ (1) (まんがタイムKRコミックス つぼみシリーズ),キャンディ
9784063805314,星河万山霊草紙(1) (KCx ITAN),星河万山霊草紙
9784063805833,星河万山霊草紙(2) <完> (KCx ITAN),星河万山霊草紙
9784757524460,ひぐらしのなく頃に解 祭囃し編 1 (ガンガンコミックス),ひぐらしのなく頃に解 祭囃し編
9784757525870,ひぐらしのなく頃に解 祭囃し編 2 (ガンガンコミックス),ひぐらしのなく頃に解 祭囃し編
9784757527515,ひぐらしのなく頃に解 祭囃し編 3 (ガンガンコミックスJOKER),ひぐらしのなく頃に解 祭囃し編
9784757529724,ひぐらしのなく頃に解 祭囃し編 4 (ガンガンコミックスＪＯＫＥＲ),ひぐらしのなく頃に解 祭囃し編
9784757529731,ひぐらしのなく頃に解 祭囃し編 5 (ガンガンコミックスＪＯＫＥＲ),ひぐらしのなく頃に解 祭囃し編
9784757530980,ひぐらしのなく頃に解 祭囃し編 6 (ガンガンコミックスＪＯＫＥＲ),ひぐらしのなく頃に解 祭囃し編
9784088745084,エンバーミング-THE ANOTHER TALE OF FRANKENSTEIN- 1 (ジャンプコミックス),エンバーミング-THE ANOTHER TALE OF FRANKENSTEIN-
9784088746388,エンバーミング-THE ANOTHER TALE OF FRANKENSTEIN- 2 (ジャンプコミックス),エンバーミング-THE ANOTHER TALE OF FRANKENSTEIN-
9784088747217,エンバーミング-THE ANOTHER TALE OF FRANKENSTEIN- 3 (ジャンプコミックス),エンバーミング-THE ANOTHER TALE OF FRANKENSTEIN-
9784088700977,エンバーミング-THE ANOTHER TALE OF FRANKENSTEIN- 4 (ジャンプコミックス),エンバーミング-THE ANOTHER TALE OF FRANKENSTEIN-
9784088702032,エンバーミング-THE ANOTHER TALE OF FRANKENSTEIN- 5 (ジャンプコミックス),エンバーミング-THE ANOTHER TALE OF FRANKENSTEIN-
9784088702476,エンバーミング-THE ANOTHER TALE OF FRANKENSTEIN- 6 (ジャンプコミックス),エンバーミング-THE ANOTHER TALE OF FRANKENSTEIN-
9784088705064,エンバーミング-THE ANOTHER TALE OF FRANKENSTEIN- 7 (ジャンプコミックス),エンバーミング-THE ANOTHER TALE OF FRANKENSTEIN-
9784757521827,メガロマニア 1 (ガンガンコミックス),メガロマニア
9784757522657,メガロマニア 2 (ガンガンコミックス),メガロマニア
9784757524033,メガロマニア 3 (ガンガンコミックス),メガロマニア
9784757525405,メガロマニア 4 (ガンガンコミックス),メガロマニア
9784758053877,ねじまきの庭 1 (IDコミックス ZERO-SUMコミックス),ねじまきの庭
9784758054621,ねじまきの庭 2 (IDコミックス ZERO-SUMコミックス),ねじまきの庭
9784832250680,そよ風そよさん (1) (まんがタイムコミックス),そよ風そよさん
9784832251229,そよ風そよさん (2) (まんがタイムコミックス),そよ風そよさん
9784048992114,ウサギ　ルリカラクサ（１） (Emotion Comics 11),ウサギ　ルリカラクサ
9784048992275,ウサギ　ルリカラクサ（２） (Emotion Comics 27),ウサギ　ルリカラクサ
9784758062848,サユリリ 01―SAYURI&LILY (IDコミックス REXコミックス),サユリリ—SAYURI&LILY
9784758063081,サユリリ (2) (REXコミックス),サユリリ—SAYURI&LILY
9784757522305,春期限定いちごタルト事件 前 (Gファンタジーコミックス),春期限定いちごタルト事件
9784757524873,春期限定いちごタルト事件 後(Gファンタジーコミックス),春期限定いちごタルト事件
9784088746838,ジャンプSQ. Comic Selection Vol.1 (ジャンプSQ. Comic Selection) (ジャンプコミックス),ジャンプSQ. Comic Selection
9784088700182,ジャンプSQ. Comic Selection Vol.2 (ジャンプSQ. Comic Selection) (ジャンプコミックス),ジャンプSQ. Comic Selection
9784088702469,ジャンプSQ. Comic Selection Vol.3 (ジャンプSQ. Comic Selection) (ジャンプコミックス),ジャンプSQ. Comic Selection
9784088704401,ジャンプSQ. Comic Selection Vol.4 (ジャンプSQ. Comic Selection) (ジャンプコミックス),ジャンプSQ. Comic Selection
9784088707198,ジャンプSQ. Comic Selection Vol.5 (ジャンプSQ. Comic Selection) (ジャンプコミックス),ジャンプSQ. Comic Selection
9784757713659,月姫―アンソロジーノベル〈1〉 (ファミ通文庫),月姫 アンソロジーノベル
9784757714816,月姫 アンソロジーノベル〈2〉 (ファミ通文庫),月姫 アンソロジーノベル
9784488017354,蝦蟇倉市事件1 (ミステリ・フロンティア),蝦蟇倉市事件
9784488017620,蝦蟇倉市事件2 (ミステリ・フロンティア),蝦蟇倉市事件
9784309410555,NOVA 3---書き下ろし日本SFコレクション (河出文庫),NOVA
9784309410777,NOVA 4---書き下ろし日本SFコレクション (河出文庫),NOVA
9784334741167,進化論  異形コレクション (光文社文庫),異形コレクション
